Notes and Examples/PS2KeyboardOscope/PS2Keyboard/a.csv

Model,DPO4034
Firmware Version,2.1

Point Format,Y,
Horizontal Units,S,
Horizontal Scale,0.0002,
Sample Interval,2e-07,
Record Length,10000,
Probe Attenuation,10,10
Vertical Units,V,V
Vertical Offset,0,0
Vertical Scale,2,2
Label,,
TIME,CH1,CH2
-6.560e-04,4.69594,4.87219
-6.558e-04,4.68906,4.8575
-6.556e-04,4.6975,4.85281
-6.554e-04,4.685,4.86781
-6.552e-04,4.68562,4.86156
-6.550e-04,4.69313,4.86531
-6.548e-04,4.69937,4.85938
-6.546e-04,4.69031,4.87375
-6.544e-04,4.6925,4.86094
-6.542e-04,4.695,4.85594
-6.540e-04,4.69625,4.86625
-6.538e-04,4.69562,4.86438
-6.536e-04,4.69875,4.85938
-6.534e-04,4.69906,4.85656
-6.532e-04,4.69313,4.85969
-6.530e-04,4.69344,4.86156
-6.528e-04,4.69031,4.86469
-6.526e-04,4.69469,4.86094
-6.524e-04,4.69437,4.85719
-6.522e-04,4.70531,4.86375
-6.520e-04,4.69375,4.85875
-6.518e-04,4.69313,4.85094
-6.516e-04,4.69562,4.87219
-6.514e-04,4.69156,4.86469
-6.512e-04,4.68938,4.84594
-6.510e-04,4.70094,4.85625
-6.508e-04,4.68625,4.85406
-6.506e-04,4.68906,4.86969
-6.504e-04,4.70156,4.86656
-6.502e-04,4.69813,4.86219
-6.500e-04,4.70344,4.87344
-6.498e-04,4.69688,4.85344
-6.496e-04,4.70438,4.86906
-6.494e-04,4.70312,4.85031
-6.492e-04,4.7025,4.86688
-6.490e-04,4.70125,4.87312
-6.488e-04,4.70312,4.87813
-6.486e-04,4.68562,4.83938
-6.484e-04,4.69062,4.86125
-6.482e-04,4.70406,4.85844
-6.480e-04,4.69906,4.865
-6.478e-04,4.69156,4.84938
-6.476e-04,4.69156,4.86125
-6.474e-04,4.70469,4.85156
-6.472e-04,4.69625,4.86344
-6.470e-04,4.69562,4.85594
-6.468e-04,4.69906,4.8625
-6.466e-04,4.70344,4.87188
-6.464e-04,4.69281,4.85219
-6.462e-04,4.68688,4.86563
-6.460e-04,4.69281,4.86469
-6.458e-04,4.70031,4.85438
-6.456e-04,4.68875,4.86156
-6.454e-04,4.69469,4.85781
-6.452e-04,4.69281,4.85031
-6.450e-04,4.695,4.87
-6.448e-04,4.6875,4.85813
-6.446e-04,4.69531,4.85469
-6.444e-04,4.68594,4.87594
-6.442e-04,4.69656,4.86313
-6.440e-04,4.69031,4.86219
-6.438e-04,4.68906,4.86125
-6.436e-04,4.70063,4.86375
-6.434e-04,4.70094,4.865
-6.432e-04,4.68281,4.86188
-6.430e-04,4.69313,4.85844
-6.428e-04,4.70187,4.8575
-6.426e-04,4.70562,4.86656
-6.424e-04,4.68906,4.84094
-6.422e-04,4.6975,4.89875
-6.420e-04,4.69875,4.8725
-6.418e-04,4.68719,4.86469
-6.416e-04,4.69844,4.85875
-6.414e-04,4.68531,4.84406
-6.412e-04,4.69531,4.86156
-6.410e-04,4.69094,4.86563
-6.408e-04,4.68875,4.85844
-6.406e-04,4.69875,4.87156
-6.404e-04,4.695,4.85531
-6.402e-04,4.69594,4.86375
-6.400e-04,4.69719,4.86656
-6.398e-04,4.68969,4.87469
-6.396e-04,4.69656,4.85781
-6.394e-04,4.68812,4.88063
-6.392e-04,4.68531,4.86969
-6.390e-04,4.70187,4.865
-6.388e-04,4.70156,4.88469
-6.386e-04,4.68063,4.85562
-6.384e-04,4.68781,4.85469
-6.382e-04,4.69906,4.86031
-6.380e-04,4.69781,4.86438
-6.378e-04,4.71094,4.87125
-6.376e-04,4.69281,4.86656
-6.374e-04,4.69031,4.85781
-6.372e-04,4.695,4.86469
-6.370e-04,4.69656,4.855
-6.368e-04,4.69813,4.86438
-6.366e-04,4.70344,4.85688
-6.364e-04,4.695,4.85438
-6.362e-04,4.69156,4.87625
-6.360e-04,4.69781,4.84938
-6.358e-04,4.68625,4.85375
-6.356e-04,4.69406,4.86313
-6.354e-04,4.69719,4.85469
-6.352e-04,4.70219,4.85781
-6.350e-04,4.69875,4.85969
-6.348e-04,4.70344,4.85781
-6.346e-04,4.68063,4.85531
-6.344e-04,4.69375,4.86219
-6.342e-04,4.69813,4.86031
-6.340e-04,4.69062,4.865
-6.338e-04,4.68,4.86281
-6.336e-04,4.68969,4.86469
-6.334e-04,4.69781,4.86313
-6.332e-04,4.70469,4.87625
-6.330e-04,4.7075,4.84
-6.328e-04,4.69531,4.89813
-6.326e-04,4.68906,4.89156
-6.324e-04,4.69781,4.85688
-6.322e-04,4.69875,4.86656
-6.320e-04,4.70375,4.87844
-6.318e-04,4.69406,4.86781
-6.316e-04,4.69813,4.86188
-6.314e-04,4.70031,4.85313
-6.312e-04,4.68875,4.86594
-6.310e-04,4.69156,4.86469
-6.308e-04,4.69813,4.86656
-6.306e-04,4.69594,4.84531
-6.304e-04,4.70063,4.87719
-6.302e-04,4.69594,4.86313
-6.300e-04,4.69719,4.84313
-6.298e-04,4.68594,4.90406
-6.296e-04,4.69813,4.85938
-6.294e-04,4.69969,4.86344
-6.292e-04,4.69094,4.87125
-6.290e-04,4.68781,4.86563
-6.288e-04,4.70125,4.86094
-6.286e-04,4.69031,4.87
-6.284e-04,4.69688,4.87438
-6.282e-04,4.70156,4.87156
-6.280e-04,4.68781,4.87156
-6.278e-04,4.68719,4.86094
-6.276e-04,4.69375,4.85594
-6.274e-04,4.68719,4.86625
-6.272e-04,4.69625,4.86688
-6.270e-04,4.69813,4.86313
-6.268e-04,4.69031,4.84406
-6.266e-04,4.69062,4.85375
-6.264e-04,4.69562,4.86125
-6.262e-04,4.69125,4.85344
-6.260e-04,4.68688,4.855
-6.258e-04,4.69844,4.85188
-6.256e-04,4.7,4.86656
-6.254e-04,4.6975,4.87063
-6.252e-04,4.71031,4.87031
-6.250e-04,4.69094,4.86344
-6.248e-04,4.705,4.86594
-6.246e-04,4.69531,4.8675
-6.244e-04,4.69594,4.86125
-6.242e-04,4.7,4.855
-6.240e-04,4.69875,4.85281
-6.238e-04,4.69,4.85875
-6.236e-04,4.695,4.8725
-6.234e-04,4.68906,4.83875
-6.232e-04,4.69062,4.89156
-6.230e-04,4.69031,4.86313
-6.228e-04,4.70406,4.86594
-6.226e-04,4.6925,4.86094
-6.224e-04,4.68844,4.86063
-6.222e-04,4.69969,4.86594
-6.220e-04,4.69406,4.86906
-6.218e-04,4.69406,4.86406
-6.216e-04,4.68969,4.86063
-6.214e-04,4.69594,4.86781
-6.212e-04,4.69562,4.86344
-6.210e-04,4.70438,4.85375
-6.208e-04,4.70125,4.86125
-6.206e-04,4.69062,4.9575
-6.204e-04,4.7175,4.75531
-6.202e-04,4.68906,4.88125
-6.200e-04,4.68969,4.86125
-6.198e-04,4.69406,4.8525
-6.196e-04,4.69219,4.87094
-6.194e-04,4.69062,4.87625
-6.192e-04,4.69125,4.85844
-6.190e-04,4.69469,4.86781
-6.188e-04,4.69813,4.86625
-6.186e-04,4.70125,4.87594
-6.184e-04,4.69875,4.86813
-6.182e-04,4.69688,4.86281
-6.180e-04,4.70312,4.87
-6.178e-04,4.70406,4.86937
-6.176e-04,4.69688,4.86656
-6.174e-04,4.69719,4.87031
-6.172e-04,4.69969,4.86125
-6.170e-04,4.69688,4.86156
-6.168e-04,4.69781,4.86156
-6.166e-04,4.69688,4.85719
-6.164e-04,4.7075,4.85156
-6.162e-04,4.70094,4.86719
-6.160e-04,4.69313,4.87188
-6.158e-04,4.69469,4.86156
-6.156e-04,4.70312,4.86125
-6.154e-04,4.69437,4.86688
-6.152e-04,4.69469,4.86719
-6.150e-04,4.68344,4.87125
-6.148e-04,4.68719,4.86313
-6.146e-04,4.70562,4.86719
-6.144e-04,4.68875,4.86219
-6.142e-04,4.69156,4.86094
-6.140e-04,4.69219,4.83281
-6.138e-04,4.69437,4.88938
-6.136e-04,4.6975,4.87094
-6.134e-04,4.69281,4.85906
-6.132e-04,4.70812,4.87188
-6.130e-04,4.70281,4.86594
-6.128e-04,4.70219,4.86594
-6.126e-04,4.69469,4.87188
-6.124e-04,4.68844,4.85875
-6.122e-04,4.69656,4.86031
-6.120e-04,4.685,4.86406
-6.118e-04,4.69906,4.86719
-6.116e-04,4.71,4.8575
-6.114e-04,4.69625,4.85688
-6.112e-04,4.685,4.86438
-6.110e-04,4.72125,4.91719
-6.108e-04,4.69813,4.81
-6.106e-04,4.69094,4.87688
-6.104e-04,4.70531,4.87438
-6.102e-04,4.71625,4.86125
-6.100e-04,4.70125,4.87844
-6.098e-04,4.70406,4.86438
-6.096e-04,4.69875,4.86656
-6.094e-04,4.70375,4.86906
-6.092e-04,4.70625,4.87063
-6.090e-04,4.70875,4.85656
-6.088e-04,4.69813,4.86906
-6.086e-04,4.71281,4.86219
-6.084e-04,4.71906,4.86469
-6.082e-04,4.70812,4.87656
-6.080e-04,4.70406,4.86844
-6.078e-04,4.71,4.86313
-6.076e-04,4.70063,4.86281
-6.074e-04,4.70187,4.86906
-6.072e-04,4.68281,4.86937
-6.070e-04,4.70312,4.86344
-6.068e-04,4.7075,4.86375
-6.066e-04,4.7025,4.86906
-6.064e-04,4.7075,4.865
-6.062e-04,4.70187,4.86375
-6.060e-04,4.70688,4.86531
-6.058e-04,4.70469,4.86313
-6.056e-04,4.70594,4.8575
-6.054e-04,4.70969,4.8675
-6.052e-04,4.69781,4.85875
-6.050e-04,4.7,4.85625
-6.048e-04,4.68406,4.86
-6.046e-04,4.68875,4.81281
-6.044e-04,4.6975,4.89469
-6.042e-04,4.70438,4.88031
-6.040e-04,4.68844,4.85406
-6.038e-04,4.70844,4.86406
-6.036e-04,4.69344,4.8475
-6.034e-04,4.69937,4.86594
-6.032e-04,4.70156,4.86469
-6.030e-04,4.7075,4.86125
-6.028e-04,4.69094,4.87281
-6.026e-04,4.69469,4.86063
-6.024e-04,4.69313,4.85719
-6.022e-04,4.70125,4.85688
-6.020e-04,4.69656,4.8575
-6.018e-04,4.70031,4.86188
-6.016e-04,4.6975,4.80188
-6.014e-04,4.68156,4.95188
-6.012e-04,4.69531,4.82719
-6.010e-04,4.70875,4.87
-6.008e-04,4.69594,4.86969
-6.006e-04,4.70094,4.86313
-6.004e-04,4.70187,4.86688
-6.002e-04,4.69344,4.86094
-6.000e-04,4.69437,4.86063
-5.998e-04,4.7025,4.86438
-5.996e-04,4.69937,4.85469
-5.994e-04,4.69844,4.85438
-5.992e-04,4.705,4.86781
-5.990e-04,4.70156,4.85594
-5.988e-04,4.70781,4.85844
-5.986e-04,4.705,4.87031
-5.984e-04,4.69937,4.85375
-5.982e-04,4.69625,4.87
-5.980e-04,4.69625,4.85906
-5.978e-04,4.70656,4.8475
-5.976e-04,4.68594,4.86688
-5.974e-04,4.69625,4.87
-5.972e-04,4.685,4.85656
-5.970e-04,4.70937,4.86406
-5.968e-04,4.69562,4.86719
-5.966e-04,4.70875,4.85938
-5.964e-04,4.70781,4.87125
-5.962e-04,4.69344,4.86
-5.960e-04,4.70438,4.87063
-5.958e-04,4.69844,4.87
-5.956e-04,4.69094,4.87875
-5.954e-04,4.70125,4.86594
-5.952e-04,4.68406,4.84563
-5.950e-04,4.69,4.86406
-5.948e-04,4.68438,4.89344
-5.946e-04,4.68781,4.85469
-5.944e-04,4.69125,4.84625
-5.942e-04,4.69813,4.8625
-5.940e-04,4.69313,4.86625
-5.938e-04,4.70281,4.85719
-5.936e-04,4.70562,4.86563
-5.934e-04,4.69844,4.86563
-5.932e-04,4.71094,4.87438
-5.930e-04,4.68594,4.85031
-5.928e-04,4.68156,4.84313
-5.926e-04,4.69719,4.84906
-5.924e-04,4.7025,4.8575
-5.922e-04,4.68875,4.93187
-5.920e-04,4.70406,4.78563
-5.918e-04,4.68656,4.85375
-5.916e-04,4.69875,4.86406
-5.914e-04,4.69,4.84625
-5.912e-04,4.69656,4.8675
-5.910e-04,4.70406,4.85719
-5.908e-04,4.69531,4.84906
-5.906e-04,4.69469,4.86156
-5.904e-04,4.6975,4.85656
-5.902e-04,4.68594,4.85094
-5.900e-04,4.685,4.86375
-5.898e-04,4.67781,4.8575
-5.896e-04,4.69219,4.85313
-5.894e-04,4.68906,4.84469
-5.892e-04,4.69125,4.85656
-5.890e-04,4.68531,4.8675
-5.888e-04,4.68594,4.85313
-5.886e-04,4.70094,4.85875
-5.884e-04,4.69625,4.86188
-5.882e-04,4.69594,4.85719
-5.880e-04,4.69062,4.86969
-5.878e-04,4.70094,4.85813
-5.876e-04,4.69656,4.87094
-5.874e-04,4.67938,4.86313
-5.872e-04,4.68812,4.86281
-5.870e-04,4.7025,4.87406
-5.868e-04,4.70469,4.87375
-5.866e-04,4.69688,4.87156
-5.864e-04,4.69281,4.87563
-5.862e-04,4.69937,4.86469
-5.860e-04,4.69813,4.86188
-5.858e-04,4.69937,4.85531
-5.856e-04,4.6875,4.8325
-5.854e-04,4.69437,4.9025
-5.852e-04,4.70156,4.8575
-5.850e-04,4.6975,4.86406
-5.848e-04,4.69781,4.86531
-5.846e-04,4.69031,4.8625
-5.844e-04,4.6975,4.86563
-5.842e-04,4.70094,4.87312
-5.840e-04,4.69562,4.86531
-5.838e-04,4.69937,4.8675
-5.836e-04,4.68906,4.86438
-5.834e-04,4.69719,4.86219
-5.832e-04,4.69031,4.86188
-5.830e-04,4.68906,4.86125
-5.828e-04,4.7025,4.86375
-5.826e-04,4.69344,4.86094
-5.824e-04,4.69844,4.88469
-5.822e-04,4.69062,4.82688
-5.820e-04,4.69062,4.86781
-5.818e-04,4.69313,4.84
-5.816e-04,4.68781,4.87469
-5.814e-04,4.69562,4.855
-5.812e-04,4.69781,4.86
-5.810e-04,4.69375,4.87656
-5.808e-04,4.70125,4.85562
-5.806e-04,4.68406,4.86188
-5.804e-04,4.7,4.85156
-5.802e-04,4.69594,4.85063
-5.800e-04,4.70063,4.85156
-5.798e-04,4.69937,4.86281
-5.796e-04,4.69594,4.86344
-5.794e-04,4.68688,4.86344
-5.792e-04,4.7075,4.86719
-5.790e-04,4.68656,4.85656
-5.788e-04,4.69875,4.85594
-5.786e-04,4.70094,4.86375
-5.784e-04,4.68219,4.86531
-5.782e-04,4.69406,4.8675
-5.780e-04,4.69875,4.85875
-5.778e-04,4.69156,4.85594
-5.776e-04,4.69281,4.85969
-5.774e-04,4.69844,4.85906
-5.772e-04,4.69437,4.8675
-5.770e-04,4.70156,4.86063
-5.768e-04,4.69656,4.85875
-5.766e-04,4.69062,4.86531
-5.764e-04,4.68938,4.81938
-5.762e-04,4.69531,4.9
-5.760e-04,4.69219,4.86156
-5.758e-04,4.69531,4.8575
-5.756e-04,4.70094,4.84438
-5.754e-04,4.69125,4.86219
-5.752e-04,4.70156,4.85219
-5.750e-04,4.68844,4.85688
-5.748e-04,4.69469,4.85406
-5.746e-04,4.69844,4.86375
-5.744e-04,4.70469,4.86313
-5.742e-04,4.68031,4.86344
-5.740e-04,4.69906,4.86125
-5.738e-04,4.68812,4.85938
-5.736e-04,4.69656,4.855
-5.734e-04,4.69125,4.975
-5.732e-04,4.69656,4.73094
-5.730e-04,4.69062,4.88281
-5.728e-04,4.69688,4.855
-5.726e-04,4.68406,4.84563
-5.724e-04,4.68938,4.85844
-5.722e-04,4.69375,4.85875
-5.720e-04,4.70125,4.87
-5.718e-04,4.69531,4.86125
-5.716e-04,4.70438,4.85313
-5.714e-04,4.68844,4.86656
-5.712e-04,4.70438,4.86625
-5.710e-04,4.70063,4.87094
-5.708e-04,4.69344,4.86094
-5.706e-04,4.69688,4.85844
-5.704e-04,4.70156,4.87063
-5.702e-04,4.69937,4.86688
-5.700e-04,4.69594,4.86531
-5.698e-04,4.70281,4.86219
-5.696e-04,4.6875,4.86406
-5.694e-04,4.69688,4.86813
-5.692e-04,4.69906,4.87219
-5.690e-04,4.69969,4.86031
-5.688e-04,4.68469,4.86844
-5.686e-04,4.68844,4.85719
-5.684e-04,4.6925,4.87188
-5.682e-04,4.69781,4.86594
-5.680e-04,4.68063,4.86219
-5.678e-04,4.6825,4.85844
-5.676e-04,4.69062,4.86469
-5.674e-04,4.69281,4.86094
-5.672e-04,4.68719,4.81813
-5.670e-04,4.69813,4.9075
-5.668e-04,4.69531,4.87781
-5.666e-04,4.7025,4.86719
-5.664e-04,4.69813,4.86906
-5.662e-04,4.70219,4.86625
-5.660e-04,4.7075,4.86031
-5.658e-04,4.69313,4.8675
-5.656e-04,4.69313,4.86688
-5.654e-04,4.69562,4.86281
-5.652e-04,4.69688,4.86625
-5.650e-04,4.68812,4.88406
-5.648e-04,4.69031,4.86188
-5.646e-04,4.69844,4.86406
-5.644e-04,4.69688,4.86656
-5.642e-04,4.70281,4.87344
-5.640e-04,4.69062,4.95531
-5.638e-04,4.69281,4.76688
-5.636e-04,4.6875,4.88687
-5.634e-04,4.6925,4.85688
-5.632e-04,4.69031,4.86281
-5.630e-04,4.70187,4.86531
-5.628e-04,4.70031,4.86406
-5.626e-04,4.68375,4.86375
-5.624e-04,4.70344,4.86406
-5.622e-04,4.695,4.87281
-5.620e-04,4.70281,4.86656
-5.618e-04,4.70438,4.87469
-5.616e-04,4.68781,4.86531
-5.614e-04,4.69656,4.86094
-5.612e-04,4.70219,4.86031
-5.610e-04,4.70187,4.855
-5.608e-04,4.69375,4.87219
-5.606e-04,4.69406,4.85688
-5.604e-04,4.69688,4.86125
-5.602e-04,4.69,4.87375
-5.600e-04,4.69656,4.87438
-5.598e-04,4.69062,4.8575
-5.596e-04,4.68875,4.86563
-5.594e-04,4.70438,4.87375
-5.592e-04,4.70031,4.8675
-5.590e-04,4.69094,4.86969
-5.588e-04,4.69281,4.86594
-5.586e-04,4.69313,4.8575
-5.584e-04,4.68531,4.87281
-5.582e-04,4.70406,4.86188
-5.580e-04,4.68531,4.82031
-5.578e-04,4.6925,4.90344
-5.576e-04,4.68625,4.88687
-5.574e-04,4.68625,4.85813
-5.572e-04,4.68938,4.86188
-5.570e-04,4.69313,4.86969
-5.568e-04,4.69688,4.86719
-5.566e-04,4.69656,4.86844
-5.564e-04,4.68781,4.86781
-5.562e-04,4.68688,4.865
-5.560e-04,4.69156,4.86969
-5.558e-04,4.69813,4.86156
-5.556e-04,4.69156,4.86781
-5.554e-04,4.69344,4.87188
-5.552e-04,4.69344,4.86625
-5.550e-04,4.69906,4.86625
-5.548e-04,4.71125,4.77156
-5.546e-04,4.69562,4.99812
-5.544e-04,4.71,4.81563
-5.542e-04,4.70438,4.86344
-5.540e-04,4.69469,4.86813
-5.538e-04,4.68031,4.84469
-5.536e-04,4.69281,4.86937
-5.534e-04,4.69281,4.85656
-5.532e-04,4.69813,4.85375
-5.530e-04,4.70344,4.86781
-5.528e-04,4.68938,4.85406
-5.526e-04,4.69906,4.87438
-5.524e-04,4.68875,4.87
-5.522e-04,4.70469,4.87281
-5.520e-04,4.69969,4.86
-5.518e-04,4.69375,4.85156
-5.516e-04,4.69156,4.8625
-5.514e-04,4.6975,4.85813
-5.512e-04,4.69281,4.86906
-5.510e-04,4.69625,4.87
-5.508e-04,4.69281,4.86313
-5.506e-04,4.69156,4.86313
-5.504e-04,4.7075,4.86156
-5.502e-04,4.69531,4.86813
-5.500e-04,4.69344,4.87563
-5.498e-04,4.69813,4.87125
-5.496e-04,4.69969,4.86594
-5.494e-04,4.69875,4.87625
-5.492e-04,4.69531,4.85594
-5.490e-04,4.68875,4.86
-5.488e-04,4.70469,4.83531
-5.486e-04,4.68375,4.86375
-5.484e-04,4.69969,4.88563
-5.482e-04,4.69375,4.87094
-5.480e-04,4.69313,4.86344
-5.478e-04,4.69813,4.86
-5.476e-04,4.69875,4.86219
-5.474e-04,4.70594,4.87438
-5.472e-04,4.69656,4.86906
-5.470e-04,4.69531,4.86375
-5.468e-04,4.69219,4.86063
-5.466e-04,4.69469,4.86594
-5.464e-04,4.69156,4.86219
-5.462e-04,4.7,4.86438
-5.460e-04,4.70156,4.84781
-5.458e-04,4.69781,4.86375
-5.456e-04,4.69719,4.93656
-5.454e-04,4.68281,4.77
-5.452e-04,4.69656,4.90094
-5.450e-04,4.69719,4.83906
-5.448e-04,4.70219,4.87063
-5.446e-04,4.69375,4.86375
-5.444e-04,4.68594,4.85125
-5.442e-04,4.68562,4.87219
-5.440e-04,4.69094,4.85688
-5.438e-04,4.68844,4.86625
-5.436e-04,4.70344,4.87375
-5.434e-04,4.69688,4.86688
-5.432e-04,4.69406,4.87
-5.430e-04,4.69313,4.86531
-5.428e-04,4.70219,4.86594
-5.426e-04,4.69688,4.86438
-5.424e-04,4.68844,4.86281
-5.422e-04,4.68063,4.85375
-5.420e-04,4.69062,4.87969
-5.418e-04,4.70031,4.85688
-5.416e-04,4.68156,4.86063
-5.414e-04,4.68906,4.86656
-5.412e-04,4.68844,4.86688
-5.410e-04,4.69688,4.86375
-5.408e-04,4.69562,4.86594
-5.406e-04,4.69437,4.85969
-5.404e-04,4.70937,4.85688
-5.402e-04,4.70031,4.86656
-5.400e-04,4.70063,4.86156
-5.398e-04,4.69406,4.84938
-5.396e-04,4.69719,4.86156
-5.394e-04,4.68812,4.83125
-5.392e-04,4.69656,4.90469
-5.390e-04,4.7075,4.86688
-5.388e-04,4.69906,4.85938
-5.386e-04,4.69562,4.85594
-5.384e-04,4.695,4.87063
-5.382e-04,4.69156,4.87
-5.380e-04,4.69531,4.865
-5.378e-04,4.70063,4.86156
-5.376e-04,4.70562,4.86563
-5.374e-04,4.69156,4.86688
-5.372e-04,4.70094,4.87375
-5.370e-04,4.69531,4.86031
-5.368e-04,4.69281,4.86469
-5.366e-04,4.68187,4.86281
-5.364e-04,4.68594,4.96719
-5.362e-04,4.72156,4.73094
-5.360e-04,4.68688,4.8775
-5.358e-04,4.70469,4.87031
-5.356e-04,4.7,4.83594
-5.354e-04,4.70344,4.85406
-5.352e-04,4.69594,4.85313
-5.350e-04,4.70594,4.86937
-5.348e-04,4.695,4.85781
-5.346e-04,4.69656,4.87406
-5.344e-04,4.69562,4.86969
-5.342e-04,4.69375,4.865
-5.340e-04,4.69281,4.84969
-5.338e-04,4.69875,4.86125
-5.336e-04,4.69437,4.85469
-5.334e-04,4.71,4.88281
-5.332e-04,4.69656,4.85594
-5.330e-04,4.69594,4.86813
-5.328e-04,4.70281,4.87406
-5.326e-04,4.70406,4.86906
-5.324e-04,4.68969,4.86438
-5.322e-04,4.69625,4.8625
-5.320e-04,4.70156,4.86438
-5.318e-04,4.68781,4.87031
-5.316e-04,4.71188,4.86844
-5.314e-04,4.69688,4.86844
-5.312e-04,4.705,4.86438
-5.310e-04,4.69719,4.87219
-5.308e-04,4.70281,4.85562
-5.306e-04,4.68156,4.87
-5.304e-04,4.70344,4.86906
-5.302e-04,4.69844,4.81875
-5.300e-04,4.68844,4.90125
-5.298e-04,4.70344,4.85781
-5.296e-04,4.695,4.85375
-5.294e-04,4.69375,4.85031
-5.292e-04,4.69437,4.85656
-5.290e-04,4.69313,4.86375
-5.288e-04,4.70094,4.85562
-5.286e-04,4.69937,4.87219
-5.284e-04,4.70031,4.865
-5.282e-04,4.68125,4.85906
-5.280e-04,4.69406,4.86344
-5.278e-04,4.7,4.85594
-5.276e-04,4.69062,4.87063
-5.274e-04,4.6975,4.865
-5.272e-04,4.7,4.85594
-5.270e-04,4.70406,4.92344
-5.268e-04,4.69313,4.77281
-5.266e-04,4.68719,4.88625
-5.264e-04,4.69906,4.85438
-5.262e-04,4.70406,4.86844
-5.260e-04,4.69937,4.85875
-5.258e-04,4.705,4.86438
-5.256e-04,4.69781,4.86531
-5.254e-04,4.69344,4.86375
-5.252e-04,4.69594,4.86719
-5.250e-04,4.68781,4.87563
-5.248e-04,4.70156,4.86063
-5.246e-04,4.7025,4.86313
-5.244e-04,4.68594,4.85656
-5.242e-04,4.69031,4.86438
-5.240e-04,4.7,4.87219
-5.238e-04,4.69688,4.87031
-5.236e-04,4.70312,4.86781
-5.234e-04,4.7,4.85656
-5.232e-04,4.69688,4.8675
-5.230e-04,4.69469,4.86969
-5.228e-04,4.69719,4.85938
-5.226e-04,4.70063,4.86313
-5.224e-04,4.68281,4.86031
-5.222e-04,4.69094,4.85938
-5.220e-04,4.69937,4.86469
-5.218e-04,4.69469,4.88188
-5.216e-04,4.70281,4.87406
-5.214e-04,4.68875,4.86
-5.212e-04,4.69094,4.86281
-5.210e-04,4.69406,4.80625
-5.208e-04,4.70063,4.92
-5.206e-04,4.70562,4.88313
-5.204e-04,4.70969,4.855
-5.202e-04,4.70562,4.86656
-5.200e-04,4.69937,4.86125
-5.198e-04,4.69281,4.86563
-5.196e-04,4.69281,4.8575
-5.194e-04,4.69562,4.86219
-5.192e-04,4.695,4.87125
-5.190e-04,4.69062,4.85344
-5.188e-04,4.69156,4.87375
-5.186e-04,4.7,4.85531
-5.184e-04,4.70031,4.86344
-5.182e-04,4.6975,4.86344
-5.180e-04,4.69562,4.86563
-5.178e-04,4.69469,4.89844
-5.176e-04,4.69781,4.80563
-5.174e-04,4.70562,4.86625
-5.172e-04,4.69062,4.87594
-5.170e-04,4.70063,4.85688
-5.168e-04,4.70812,4.86375
-5.166e-04,4.69562,4.86781
-5.164e-04,4.70656,4.86313
-5.162e-04,4.68469,4.85969
-5.160e-04,4.69844,4.86906
-5.158e-04,4.69094,4.85406
-5.156e-04,4.70031,4.86563
-5.154e-04,4.70156,4.87594
-5.152e-04,4.695,4.86031
-5.150e-04,4.7025,4.8675
-5.148e-04,4.68531,4.86719
-5.146e-04,4.69125,4.86594
-5.144e-04,4.69937,4.8675
-5.142e-04,4.69,4.8675
-5.140e-04,4.69281,4.86344
-5.138e-04,4.69062,4.86406
-5.136e-04,4.70344,4.85625
-5.134e-04,4.69469,4.875
-5.132e-04,4.69437,4.86375
-5.130e-04,4.68969,4.86781
-5.128e-04,4.68938,4.86188
-5.126e-04,4.69688,4.87
-5.124e-04,4.69875,4.86656
-5.122e-04,4.69875,4.84781
-5.120e-04,4.68625,4.86656
-5.118e-04,4.69781,4.81281
-5.116e-04,4.6975,4.91281
-5.114e-04,4.7,4.88875
-5.112e-04,4.69562,4.85531
-5.110e-04,4.69875,4.85344
-5.108e-04,4.70125,4.85406
-5.106e-04,4.69719,4.86563
-5.104e-04,4.69,4.86188
-5.102e-04,4.69281,4.86219
-5.100e-04,4.68906,4.85375
-5.098e-04,4.68781,4.86469
-5.096e-04,4.69437,4.86156
-5.094e-04,4.70156,4.86625
-5.092e-04,4.6825,4.855
-5.090e-04,4.70406,4.86531
-5.088e-04,4.70875,4.87344
-5.086e-04,4.71375,4.87906
-5.084e-04,4.68594,4.83969
-5.082e-04,4.69594,4.88156
-5.080e-04,4.69844,4.84281
-5.078e-04,4.69437,4.86688
-5.076e-04,4.69969,4.86594
-5.074e-04,4.68531,4.86156
