Notes and Examples/PS2KeyboardOscope/PS2Keyboard/r.csv

Model,DPO4034
Firmware Version,2.1

Point Format,Y,
Horizontal Units,S,
Horizontal Scale,0.0002,
Sample Interval,2e-07,
Record Length,10000,
Probe Attenuation,10,10
Vertical Units,V,V
Vertical Offset,0,0
Vertical Scale,2,2
Label,,
TIME,CH1,CH2
-6.560e-04,4.82469,5.02
-6.558e-04,4.82625,5.02625
-6.556e-04,4.81406,5.01906
-6.554e-04,4.82188,5.02531
-6.552e-04,4.81281,5.01625
-6.550e-04,4.83938,5.01875
-6.548e-04,4.83219,5.02
-6.546e-04,4.82625,4.97781
-6.544e-04,4.81656,5.015
-6.542e-04,4.83188,5.10719
-6.540e-04,4.84375,5.03219
-6.538e-04,4.8225,4.96344
-6.536e-04,4.82812,4.985
-6.534e-04,4.82281,5.06938
-6.532e-04,4.82594,5.08
-6.530e-04,4.84844,5.00594
-6.528e-04,4.81906,4.96719
-6.526e-04,4.8175,5.00469
-6.524e-04,4.82406,4.94594
-6.522e-04,4.82563,5.16688
-6.520e-04,4.82781,4.99656
-6.518e-04,4.82094,5.03344
-6.516e-04,4.82781,5.02688
-6.514e-04,4.83437,5.02313
-6.512e-04,4.83375,5.025
-6.510e-04,4.81687,5.02562
-6.508e-04,4.84187,5.02406
-6.506e-04,4.83188,5.025
-6.504e-04,4.82563,5.02937
-6.502e-04,4.8275,5.01438
-6.500e-04,4.84969,5.24
-6.498e-04,4.82656,4.76938
-6.496e-04,4.82969,5.095
-6.494e-04,4.83344,5.00906
-6.492e-04,4.82188,5.03844
-6.490e-04,4.82125,5.01938
-6.488e-04,4.81469,5.02406
-6.486e-04,4.82531,5.02906
-6.484e-04,4.82344,5.01938
-6.482e-04,4.82656,5.02875
-6.480e-04,4.83031,5.03469
-6.478e-04,4.83906,5.02531
-6.476e-04,4.82719,5.03094
-6.474e-04,4.825,5.01844
-6.472e-04,4.81719,5.02406
-6.470e-04,4.8425,5.02813
-6.468e-04,4.84,5.02656
-6.466e-04,4.83,5.02438
-6.464e-04,4.83437,5.02844
-6.462e-04,4.825,5.01562
-6.460e-04,4.84063,5.02406
-6.458e-04,4.85125,5.02344
-6.456e-04,4.82156,5.02375
-6.454e-04,4.82188,5.02375
-6.452e-04,4.83188,5.02594
-6.450e-04,4.83188,5.02281
-6.448e-04,4.83094,4.98094
-6.446e-04,4.82313,5.01313
-6.444e-04,4.81906,5.11688
-6.442e-04,4.83,5.04281
-6.440e-04,4.82563,4.96813
-6.438e-04,4.83344,4.98062
-6.436e-04,4.82344,5.05531
-6.434e-04,4.83031,5.08625
-6.432e-04,4.83969,5.01844
-6.430e-04,4.81656,4.83188
-6.428e-04,4.825,5.23656
-6.426e-04,4.84125,4.9675
-6.424e-04,4.81188,5.02844
-6.422e-04,4.82938,5.02188
-6.420e-04,4.82875,5.02469
-6.418e-04,4.82969,5.02594
-6.416e-04,4.82375,5.02125
-6.414e-04,4.82188,5.0125
-6.412e-04,4.82188,5.01344
-6.410e-04,4.82938,5.02844
-6.408e-04,4.82156,5.01938
-6.406e-04,4.85187,5.05031
-6.404e-04,4.82406,4.98875
-6.402e-04,4.82406,5.06719
-6.400e-04,4.83188,5.01219
-6.398e-04,4.82875,5.02969
-6.396e-04,4.83281,5.02375
-6.394e-04,4.83969,5.0225
-6.392e-04,4.825,5.0125
-6.390e-04,4.82219,5.02156
-6.388e-04,4.84031,5.01625
-6.386e-04,4.82781,5.03219
-6.384e-04,4.82906,5.02188
-6.382e-04,4.82938,5.02469
-6.380e-04,4.82313,5.02906
-6.378e-04,4.82563,5.01625
-6.376e-04,4.83312,5.01406
-6.374e-04,4.83594,5.03219
-6.372e-04,4.82719,5.025
-6.370e-04,4.83844,5.02031
-6.368e-04,4.82812,5.02688
-6.366e-04,4.81781,5.0275
-6.364e-04,4.82375,5.01406
-6.362e-04,4.81937,5.02844
-6.360e-04,4.81719,5.01625
-6.358e-04,4.81844,5.01719
-6.356e-04,4.825,5.01813
-6.354e-04,4.81219,4.97125
-6.352e-04,4.81813,5.04219
-6.350e-04,4.82563,5.09719
-6.348e-04,4.83188,5.01875
-6.346e-04,4.8225,4.9675
-6.344e-04,4.80687,4.9975
-6.342e-04,4.8275,5.08063
-6.340e-04,4.82281,5.07437
-6.338e-04,4.83531,4.99406
-6.336e-04,4.83281,4.97969
-6.334e-04,4.83156,5.02156
-6.332e-04,4.82687,5.01438
-6.330e-04,4.83062,5.08469
-6.328e-04,4.82125,5.00281
-6.326e-04,4.82781,5.03469
-6.324e-04,4.82906,5.01125
-6.322e-04,4.82219,5.02813
-6.320e-04,4.82844,5.02281
-6.318e-04,4.83031,5.02813
-6.316e-04,4.83531,5.01375
-6.314e-04,4.835,5.03344
-6.312e-04,4.83094,5.0225
-6.310e-04,4.83312,5.02313
-6.308e-04,4.85,5.03938
-6.306e-04,4.81781,4.98188
-6.304e-04,4.82938,5.06406
-6.302e-04,4.83625,5.00313
-6.300e-04,4.82875,5.01375
-6.298e-04,4.82594,5.02844
-6.296e-04,4.82406,5.01156
-6.294e-04,4.83094,5.01531
-6.292e-04,4.83031,5.00969
-6.290e-04,4.82875,5.01719
-6.288e-04,4.82719,5.0175
-6.286e-04,4.81312,5.02594
-6.284e-04,4.82156,5.02562
-6.282e-04,4.82719,5.03
-6.280e-04,4.82156,5.01187
-6.278e-04,4.83781,5.025
-6.276e-04,4.83,5.01656
-6.274e-04,4.82531,5.02125
-6.272e-04,4.82594,5.02125
-6.270e-04,4.815,5.02344
-6.268e-04,4.83188,5.0225
-6.266e-04,4.82,5.01875
-6.264e-04,4.82125,5.02594
-6.262e-04,4.82156,5.02813
-6.260e-04,4.8225,5.01688
-6.258e-04,4.83563,5.02281
-6.256e-04,4.825,4.97656
-6.254e-04,4.81562,5.04406
-6.252e-04,4.83125,5.1075
-6.250e-04,4.83875,5.02656
-6.248e-04,4.83031,4.96156
-6.246e-04,4.82844,5.00188
-6.244e-04,4.81562,5.06656
-6.242e-04,4.82719,5.06969
-6.240e-04,4.8325,4.86125
-6.238e-04,4.80406,5.15094
-6.236e-04,4.8425,5.03344
-6.234e-04,4.82875,5.00406
-6.232e-04,4.83719,5.02906
-6.230e-04,4.83281,5.02156
-6.228e-04,4.825,5.01375
-6.226e-04,4.82437,5.02937
-6.224e-04,4.83625,5.02844
-6.222e-04,4.82219,5.02656
-6.220e-04,4.83156,5.01813
-6.218e-04,4.82563,5.02656
-6.216e-04,4.84094,5.33219
-6.214e-04,4.85656,4.65094
-6.212e-04,4.81969,5.10125
-6.210e-04,4.83656,5.00125
-6.208e-04,4.84625,5.03219
-6.206e-04,4.83469,5.01531
-6.204e-04,4.82906,5.01375
-6.202e-04,4.81188,5.02531
-6.200e-04,4.82563,5.01562
-6.198e-04,4.83531,5.01781
-6.196e-04,4.82469,5.02844
-6.194e-04,4.83156,5.02063
-6.192e-04,4.82812,5.03063
-6.190e-04,4.83688,5.02688
-6.188e-04,4.82563,5.01906
-6.186e-04,4.81781,5.02969
-6.184e-04,4.8275,5.02469
-6.182e-04,4.82281,5.01625
-6.180e-04,4.82062,5.02
-6.178e-04,4.82062,5.01969
-6.176e-04,4.82656,5.01344
-6.174e-04,4.82188,5.01219
-6.172e-04,4.83656,5.01969
-6.170e-04,4.81875,5.0225
-6.168e-04,4.82844,5.02937
-6.166e-04,4.83375,5.01531
-6.164e-04,4.83156,4.98094
-6.162e-04,4.82781,4.99594
-6.160e-04,4.82188,5.09344
-6.158e-04,4.83625,5.06531
-6.156e-04,4.82969,4.98031
-6.154e-04,4.81125,4.98188
-6.152e-04,4.82188,5.03656
-6.150e-04,4.82062,5.10313
-6.148e-04,4.83125,4.82
-6.146e-04,4.81094,5.21063
-6.144e-04,4.83688,5.025
-6.142e-04,4.82781,5.02219
-6.140e-04,4.83312,5.03063
-6.138e-04,4.82563,5.02375
-6.136e-04,4.81969,5.02656
-6.134e-04,4.82781,5.01906
-6.132e-04,4.8225,5.02
-6.130e-04,4.81719,5.02969
-6.128e-04,4.82687,5.02937
-6.126e-04,4.83375,5.02313
-6.124e-04,4.84781,5.22719
-6.122e-04,4.81781,4.7725
-6.120e-04,4.82437,5.10781
-6.118e-04,4.83031,5.00688
-6.116e-04,4.82281,5.03375
-6.114e-04,4.83031,5.00781
-6.112e-04,4.83062,5.01531
-6.110e-04,4.81687,5.01438
-6.108e-04,4.83375,5.01719
-6.106e-04,4.83,5.01844
-6.104e-04,4.82406,5.01344
-6.102e-04,4.82344,5.02188
-6.100e-04,4.83469,5.02094
-6.098e-04,4.82875,5.02063
-6.096e-04,4.82844,5.02781
-6.094e-04,4.82031,5.02656
-6.092e-04,4.83719,5.02188
-6.090e-04,4.83125,5.02531
-6.088e-04,4.81781,5.03406
-6.086e-04,4.82812,5.02813
-6.084e-04,4.83062,5.0225
-6.082e-04,4.82938,5.02719
-6.080e-04,4.82531,5.03156
-6.078e-04,4.82906,5.02562
-6.076e-04,4.82594,5.02031
-6.074e-04,4.83469,5.02406
-6.072e-04,4.83094,4.98344
-6.070e-04,4.81719,5.02031
-6.068e-04,4.82625,5.10375
-6.066e-04,4.84281,5.04125
-6.064e-04,4.82719,4.97344
-6.062e-04,4.82469,4.985
-6.060e-04,4.83188,5.05844
-6.058e-04,4.84094,5.085
-6.056e-04,4.82969,4.78094
-6.054e-04,4.81406,5.22938
-6.052e-04,4.83125,5.00781
-6.050e-04,4.83188,5.01375
-6.048e-04,4.82156,5.03375
-6.046e-04,4.82156,5.04312
-6.044e-04,4.81937,5.01844
-6.042e-04,4.83062,5.01
-6.040e-04,4.82812,5.02188
-6.038e-04,4.83375,5.01562
-6.036e-04,4.83594,5.02438
-6.034e-04,4.82969,5.01813
-6.032e-04,4.85187,5.19875
-6.030e-04,4.81406,4.79375
-6.028e-04,4.81781,5.10719
-6.026e-04,4.83344,5.00656
-6.024e-04,4.81906,5.02469
-6.022e-04,4.82062,5.01313
-6.020e-04,4.8225,5.01625
-6.018e-04,4.835,5.02375
-6.016e-04,4.84187,5.03375
-6.014e-04,4.82188,5.02937
-6.012e-04,4.81969,5.01625
-6.010e-04,4.82875,5.02344
-6.008e-04,4.83344,5.02219
-6.006e-04,4.82125,5.02156
-6.004e-04,4.82563,5.02313
-6.002e-04,4.83062,5.02719
-6.000e-04,4.83656,5.01906
-5.998e-04,4.82719,5.01844
-5.996e-04,4.8225,5.01438
-5.994e-04,4.82625,5.02875
-5.992e-04,4.82875,5.01313
-5.990e-04,4.82406,5.02
-5.988e-04,4.82719,5.02719
-5.986e-04,4.83594,5.01562
-5.984e-04,4.8275,5.01031
-5.982e-04,4.82781,5.02344
-5.980e-04,4.82062,4.98156
-5.978e-04,4.81594,5.01906
-5.976e-04,4.84031,5.10375
-5.974e-04,4.83281,5.04031
-5.972e-04,4.83312,4.96969
-5.970e-04,4.83656,4.98062
-5.968e-04,4.82563,5.06219
-5.966e-04,4.8375,5.08531
-5.964e-04,4.81969,4.79781
-5.962e-04,4.825,5.23531
-5.960e-04,4.83,4.99281
-5.958e-04,4.82344,5.02094
-5.956e-04,4.83188,5.01844
-5.954e-04,4.81906,5.02031
-5.952e-04,4.83188,5.01969
-5.950e-04,4.82281,5.0175
-5.948e-04,4.83938,5.02406
-5.946e-04,4.82469,5.0225
-5.944e-04,4.82406,5.02375
-5.942e-04,4.82156,5.02094
-5.940e-04,4.86875,5.04594
-5.938e-04,4.82469,4.98125
-5.936e-04,4.83437,5.06344
-5.934e-04,4.82906,5.00094
-5.932e-04,4.84281,5.03375
-5.930e-04,4.845,5.02656
-5.928e-04,4.83031,5.01219
-5.926e-04,4.82344,5.01906
-5.924e-04,4.82656,5.02094
-5.922e-04,4.8325,5.02
-5.920e-04,4.84187,5.01625
-5.918e-04,4.82094,5.02063
-5.916e-04,4.83156,5.01187
-5.914e-04,4.83437,5.02188
-5.912e-04,4.82719,5.02094
-5.910e-04,4.83156,5.02094
-5.908e-04,4.81156,5.01938
-5.906e-04,4.82719,5.01031
-5.904e-04,4.82469,5.02063
-5.902e-04,4.82563,5.02781
-5.900e-04,4.81906,5.02781
-5.898e-04,4.82469,5.02406
-5.896e-04,4.83031,5.0275
-5.894e-04,4.83188,5.01469
-5.892e-04,4.825,5.02688
-5.890e-04,4.83031,5.01625
-5.888e-04,4.82219,4.95844
-5.886e-04,4.82344,5.03531
-5.884e-04,4.82313,5.09969
-5.882e-04,4.84313,5.02906
-5.880e-04,4.83094,4.96281
-5.878e-04,4.835,4.98125
-5.876e-04,4.83625,5.06156
-5.874e-04,4.83656,5.07125
-5.872e-04,4.82469,4.83969
-5.870e-04,4.82687,5.18844
-5.868e-04,4.82469,4.97906
-5.866e-04,4.82313,5.03906
-5.864e-04,4.83312,5.01969
-5.862e-04,4.83563,5.01969
-5.860e-04,4.83469,5.02531
-5.858e-04,4.83312,5.00375
-5.856e-04,4.83688,5.02313
-5.854e-04,4.83281,5.01656
-5.852e-04,4.82563,5.01781
-5.850e-04,4.81844,5.03
-5.848e-04,4.84875,5.05906
-5.846e-04,4.80438,4.94375
-5.844e-04,4.82344,5.06969
-5.842e-04,4.82219,5.01562
-5.840e-04,4.82812,5.02156
-5.838e-04,4.81937,5.03
-5.836e-04,4.83125,5.0125
-5.834e-04,4.82719,5.02031
-5.832e-04,4.8225,5.01031
-5.830e-04,4.82594,5.02344
-5.828e-04,4.83375,5.01469
-5.826e-04,4.83062,5.02719
-5.824e-04,4.83437,5.02875
-5.822e-04,4.83563,5.01938
-5.820e-04,4.81937,5.02562
-5.818e-04,4.82469,5.01594
-5.816e-04,4.83094,5.02625
-5.814e-04,4.82219,5.015
-5.812e-04,4.82812,5.03031
-5.810e-04,4.82781,5.01469
-5.808e-04,4.82406,5.02
-5.806e-04,4.82781,5.02969
-5.804e-04,4.83094,5.02813
-5.802e-04,4.82687,5.02625
-5.800e-04,4.82344,5.01969
-5.798e-04,4.83281,5.02969
-5.796e-04,4.81906,4.97313
-5.794e-04,4.81969,5.04781
-5.792e-04,4.83,5.11188
-5.790e-04,4.83437,5.0175
-5.788e-04,4.82313,4.96625
-5.786e-04,4.82844,4.99437
-5.784e-04,4.83,5.06938
-5.782e-04,4.82125,5.06344
-5.780e-04,4.82094,4.87906
-5.778e-04,4.8375,5.14281
-5.776e-04,4.83969,4.98
-5.774e-04,4.83938,5.02969
-5.772e-04,4.84156,5.0075
-5.770e-04,4.83,5.01781
-5.768e-04,4.83656,5.01688
-5.766e-04,4.85313,5.02937
-5.764e-04,4.83031,5.00156
-5.762e-04,4.8325,5.01344
-5.760e-04,4.83219,5.01969
-5.758e-04,4.82031,5.09125
-5.756e-04,4.86469,4.92438
-5.754e-04,4.82,5.04906
-5.752e-04,4.83125,5.02719
-5.750e-04,4.82281,5.01688
-5.748e-04,4.8275,5.01125
-5.746e-04,4.83719,5.02625
-5.744e-04,4.81844,5.01438
-5.742e-04,4.82531,5.015
-5.740e-04,4.83062,5.01844
-5.738e-04,4.82188,5.0225
-5.736e-04,4.83531,5.01594
-5.734e-04,4.82781,5.02813
-5.732e-04,4.82781,5.02344
-5.730e-04,4.82344,5.02531
-5.728e-04,4.83156,5.02531
-5.726e-04,4.82969,5.02281
-5.724e-04,4.83281,5.01438
-5.722e-04,4.82031,5.00531
-5.720e-04,4.83094,5.01656
-5.718e-04,4.8275,5.0175
-5.716e-04,4.8425,5.01906
-5.714e-04,4.83781,5.00625
-5.712e-04,4.82563,5.03281
-5.710e-04,4.83344,5.0125
-5.708e-04,4.83094,5.02906
-5.706e-04,4.84281,5.01469
-5.704e-04,4.82,4.95781
-5.702e-04,4.82437,5.04844
-5.700e-04,4.83094,5.09531
-5.698e-04,4.84313,5.01344
-5.696e-04,4.83188,4.96156
-5.694e-04,4.82625,4.98406
-5.692e-04,4.82687,5.08156
-5.690e-04,4.82844,5.07344
-5.688e-04,4.81188,4.91281
-5.686e-04,4.84344,5.10875
-5.684e-04,4.82406,5
-5.682e-04,4.82,5.03063
-5.680e-04,4.82812,5.02438
-5.678e-04,4.83312,5.03281
-5.676e-04,4.82563,5.02562
-5.674e-04,4.83125,5.02094
-5.672e-04,4.81656,5.02125
-5.670e-04,4.83719,5.02094
-5.668e-04,4.83219,5.01125
-5.666e-04,4.80656,5.21875
-5.664e-04,4.85625,4.77125
-5.662e-04,4.80219,5.075
-5.660e-04,4.81781,5.02844
-5.658e-04,4.82687,5.02188
-5.656e-04,4.82156,5.01688
-5.654e-04,4.83188,5.02125
-5.652e-04,4.835,5.03313
-5.650e-04,4.8225,5.02
-5.648e-04,4.83125,5.03219
-5.646e-04,4.82563,5.01375
-5.644e-04,4.82344,5.01969
-5.642e-04,4.82938,5.03438
-5.640e-04,4.82406,5.01469
-5.638e-04,4.83281,5.02469
-5.636e-04,4.83031,5.01531
-5.634e-04,4.83188,5.01875
-5.632e-04,4.835,5.025
-5.630e-04,4.81781,5.02094
-5.628e-04,4.83219,5.02
-5.626e-04,4.82125,5.01938
-5.624e-04,4.82437,5.02625
-5.622e-04,4.83,5.02937
-5.620e-04,4.82344,5.02313
-5.618e-04,4.82875,5.02094
-5.616e-04,4.82812,5.01219
-5.614e-04,4.81531,5.01938
-5.612e-04,4.82531,4.9675
-5.610e-04,4.81937,5.05375
-5.608e-04,4.83437,5.10125
-5.606e-04,4.83281,5.01938
-5.604e-04,4.81875,4.95094
-5.602e-04,4.82,4.99188
-5.600e-04,4.82375,5.06031
-5.598e-04,4.84156,5.06688
-5.596e-04,4.8275,4.94531
-5.594e-04,4.83531,5.07594
-5.592e-04,4.83563,4.99844
-5.590e-04,4.83781,5.03063
-5.588e-04,4.82781,5.025
-5.586e-04,4.82125,5.01125
-5.584e-04,4.825,5.00625
-5.582e-04,4.83312,5.02
-5.580e-04,4.81844,5.02188
-5.578e-04,4.81469,5.00938
-5.576e-04,4.83031,5.03031
-5.574e-04,4.82344,5.25219
-5.572e-04,4.86063,4.74219
-5.570e-04,4.81031,5.06781
-5.568e-04,4.82938,5.03563
-5.566e-04,4.82844,5.015
-5.564e-04,4.82531,5.01375
-5.562e-04,4.83,5.02688
-5.560e-04,4.83156,5.02
-5.558e-04,4.83469,5.01344
-5.556e-04,4.82594,5.02281
-5.554e-04,4.82437,5.02219
-5.552e-04,4.82687,5.02281
-5.550e-04,4.83062,5.0125
-5.548e-04,4.825,5.02406
-5.546e-04,4.82313,5.02594
-5.544e-04,4.8225,5.01313
-5.542e-04,4.83469,5.01438
-5.540e-04,4.82094,5.0225
-5.538e-04,4.83625,5.02281
-5.536e-04,4.83,5.01469
-5.534e-04,4.82906,5.015
-5.532e-04,4.83281,5.02594
-5.530e-04,4.84219,5.02031
-5.528e-04,4.82375,5.01156
-5.526e-04,4.8225,5.01656
-5.524e-04,4.82875,5.01531
-5.522e-04,4.82188,5.00844
-5.520e-04,4.82031,4.97063
-5.518e-04,4.81406,5.045
-5.516e-04,4.82563,5.09969
-5.514e-04,4.82156,5.00781
-5.512e-04,4.82812,4.96625
-5.510e-04,4.80844,4.97969
-5.508e-04,4.82188,5.06719
-5.506e-04,4.83094,5.065
-5.504e-04,4.81312,4.92531
-5.502e-04,4.82188,5.08844
-5.500e-04,4.82594,5.00094
-5.498e-04,4.82,5.0225
-5.496e-04,4.82625,5.01875
-5.494e-04,4.82,5.02594
-5.492e-04,4.82219,5.01406
-5.490e-04,4.82844,5.03156
-5.488e-04,4.82156,5.01969
-5.486e-04,4.84031,5.02031
-5.484e-04,4.83,5.01844
-5.482e-04,4.84094,5.32688
-5.480e-04,4.85062,4.68531
-5.478e-04,4.82062,5.0375
-5.476e-04,4.84031,5.045
-5.474e-04,4.82281,5.01938
-5.472e-04,4.82938,5.02688
-5.470e-04,4.81719,5.02469
-5.468e-04,4.82375,5.02906
-5.466e-04,4.83344,5.01469
-5.464e-04,4.81969,5.03063
-5.462e-04,4.82812,5.02406
-5.460e-04,4.82938,5.02156
-5.458e-04,4.83688,5.03281
-5.456e-04,4.82031,5.0225
-5.454e-04,4.82656,5.01969
-5.452e-04,4.82281,5.0175
-5.450e-04,4.82719,5.01969
-5.448e-04,4.8175,5.02094
-5.446e-04,4.82062,5.01562
-5.444e-04,4.82625,5.01219
-5.442e-04,4.82188,5.015
-5.440e-04,4.82281,5.02438
-5.438e-04,4.82062,5.02469
-5.436e-04,4.82844,5.01219
-5.434e-04,4.83844,5.02781
-5.432e-04,4.82156,5.01781
-5.430e-04,4.83688,5.00719
-5.428e-04,4.82375,4.95938
-5.426e-04,4.82281,5.06094
-5.424e-04,4.83188,5.09156
-5.422e-04,4.83469,4.99313
-5.420e-04,4.82188,4.96719
-5.418e-04,4.81656,5.01313
-5.416e-04,4.82625,4.95563
-5.414e-04,4.81406,5.1475
-5.412e-04,4.83719,5.00969
-5.410e-04,4.83312,5.01813
-5.408e-04,4.82656,5.03625
-5.406e-04,4.83062,5.02688
-5.404e-04,4.82156,5.02937
-5.402e-04,4.82719,5.03281
-5.400e-04,4.81438,5.02531
-5.398e-04,4.81813,5.02094
-5.396e-04,4.82219,5.01281
-5.394e-04,4.82219,5.02094
-5.392e-04,4.83563,5.30969
-5.390e-04,4.83281,4.66969
-5.388e-04,4.81344,5.09
-5.386e-04,4.82656,5.01813
-5.384e-04,4.82563,5.02969
-5.382e-04,4.82563,5.02063
-5.380e-04,4.82687,5.025
-5.378e-04,4.83437,5.025
-5.376e-04,4.82906,5.02219
-5.374e-04,4.82406,5.02219
-5.372e-04,4.82531,5.02281
-5.370e-04,4.82031,5.02625
-5.368e-04,4.82594,5.00781
-5.366e-04,4.82406,5.03344
-5.364e-04,4.82812,5.02281
-5.362e-04,4.83,5.02469
-5.360e-04,4.8275,5.01406
-5.358e-04,4.82812,5.0275
-5.356e-04,4.82344,5.02875
-5.354e-04,4.82531,5.02156
-5.352e-04,4.8175,5.02438
-5.350e-04,4.82375,5.0225
-5.348e-04,4.83188,5.02188
-5.346e-04,4.82719,5.01813
-5.344e-04,4.81906,5.01469
-5.342e-04,4.8225,5.0225
-5.340e-04,4.83844,4.99656
-5.338e-04,4.83125,4.99406
-5.336e-04,4.84406,5.07812
-5.334e-04,4.83594,5.06656
-5.332e-04,4.84969,4.99688
-5.330e-04,4.82344,4.96781
-5.328e-04,4.81844,5.025
-5.326e-04,4.81438,4.97375
-5.324e-04,4.82594,5.11031
-5.322e-04,4.84,5.01531
-5.320e-04,4.83031,5.03688
-5.318e-04,4.82938,5.0175
-5.316e-04,4.83156,5.03563
-5.314e-04,4.84375,5.02594
-5.312e-04,4.83625,5.02813
-5.310e-04,4.83625,5.0225
-5.308e-04,4.82594,5.03375
-5.306e-04,4.83812,5.03906
-5.304e-04,4.83656,5.01719
-5.302e-04,4.85281,5.19406
-5.300e-04,4.8175,4.80156
-5.298e-04,4.83125,5.10063
-5.296e-04,4.82906,5.00188
-5.294e-04,4.83781,5.02281
-5.292e-04,4.8225,5.02969
-5.290e-04,4.82812,5.01125
-5.288e-04,4.83,5.03156
-5.286e-04,4.82563,5.02156
-5.284e-04,4.82625,5.015
-5.282e-04,4.81562,5.01406
-5.280e-04,4.82563,5.01125
-5.278e-04,4.82344,5.025
-5.276e-04,4.82281,5.01688
-5.274e-04,4.83656,5.02063
-5.272e-04,4.82719,5.0225
-5.270e-04,4.83062,5.02031
-5.268e-04,4.82375,5.01438
-5.266e-04,4.82969,5.01688
-5.264e-04,4.82156,5.02094
-5.262e-04,4.83312,5.02156
-5.260e-04,4.82687,5.01875
-5.258e-04,4.82375,5.00844
-5.256e-04,4.82375,5.015
-5.254e-04,4.83719,5.01719
-5.252e-04,4.82656,5.01594
-5.250e-04,4.82125,4.97594
-5.248e-04,4.81844,4.98438
-5.246e-04,4.82781,5.105
-5.244e-04,4.83188,5.05813
-5.242e-04,4.83188,4.96969
-5.240e-04,4.825,4.98156
-5.238e-04,4.83219,5.04563
-5.236e-04,4.825,5.00906
-5.234e-04,4.83563,5.075
-5.232e-04,4.83188,5.00125
-5.230e-04,4.82219,5.03
-5.228e-04,4.82969,5.02188
-5.226e-04,4.83125,5.01656
-5.224e-04,4.82,5.01813
-5.222e-04,4.83031,5.02875
-5.220e-04,4.82594,5.00875
-5.218e-04,4.83,5.02875
-5.216e-04,4.82,5.01625
-5.214e-04,4.83719,5.02469
-5.212e-04,4.85719,5.06156
-5.210e-04,4.805,4.96438
-5.208e-04,4.82812,5.05781
-5.206e-04,4.81125,5.01313
-5.204e-04,4.82156,5.01938
-5.202e-04,4.82031,5.03406
-5.200e-04,4.82719,5.0175
-5.198e-04,4.82812,5.01906
-5.196e-04,4.82469,5.0075
-5.194e-04,4.83219,5.02031
-5.192e-04,4.83156,5.0275
-5.190e-04,4.82687,5.02031
-5.188e-04,4.84,5.00688
-5.186e-04,4.82563,5.02063
-5.184e-04,4.82031,5.01938
-5.182e-04,4.83094,5.02719
-5.180e-04,4.83469,5.01781
-5.178e-04,4.82687,5.01125
-5.176e-04,4.82781,5.00875
-5.174e-04,4.82281,5.0225
-5.172e-04,4.83812,5.0225
-5.170e-04,4.8175,5.01844
-5.168e-04,4.83031,5.01531
-5.166e-04,4.82719,5.01781
-5.164e-04,4.83188,5.01906
-5.162e-04,4.83281,5.0275
-5.160e-04,4.82625,4.99719
-5.158e-04,4.81594,4.99781
-5.156e-04,4.83062,5.08594
-5.154e-04,4.8375,5.05656
-5.152e-04,4.825,4.97563
-5.150e-04,4.82125,4.97875
-5.148e-04,4.82344,5.05031
-5.146e-04,4.81281,5.01938
-5.144e-04,4.83188,5.05406
-5.142e-04,4.835,4.99844
-5.140e-04,4.83031,5.02375
-5.138e-04,4.82344,5.01813
-5.136e-04,4.82625,5.025
-5.134e-04,4.8275,5.02906
-5.132e-04,4.81844,5.00438
-5.130e-04,4.82469,5.02156
-5.128e-04,4.82,5.02281
-5.126e-04,4.82406,5.02188
-5.124e-04,4.82406,5.01562
-5.122e-04,4.84156,5.04281
-5.120e-04,4.82188,4.97344
-5.118e-04,4.82281,5.05625
-5.116e-04,4.82156,5.00125
-5.114e-04,4.82219,5.01906
-5.112e-04,4.82281,5.0225
-5.110e-04,4.81937,5.01969
-5.108e-04,4.81906,5.01469
-5.106e-04,4.82844,5.01813
-5.104e-04,4.82313,5.01406
-5.102e-04,4.83031,5.015
-5.100e-04,4.82375,5.02438
-5.098e-04,4.82344,5.0175
-5.096e-04,4.83312,5.01969
-5.094e-04,4.82281,5.025
-5.092e-04,4.83375,5.01969
-5.090e-04,4.83031,5.02656
-5.088e-04,4.83344,5.02063
-5.086e-04,4.82313,5.01187
-5.084e-04,4.83062,5.01063
-5.082e-04,4.82125,5.03031
-5.080e-04,4.82656,5.01875
-5.078e-04,4.82375,5.02656
-5.076e-04,4.82844,5.02406
-5.074e-04,4.83219,5.02094
