Notes and Examples/PS2KeyboardOscope/PS2Keyboard/s.csv

Model,DPO4034
Firmware Version,2.1

Point Format,Y,
Horizontal Units,S,
Horizontal Scale,0.0002,
Sample Interval,2e-07,
Record Length,10000,
Probe Attenuation,10,10
Vertical Units,V,V
Vertical Offset,0,0
Vertical Scale,2,2
Label,,
TIME,CH1,CH2
-6.560e-04,4.79219,5.02594
-6.558e-04,4.79625,4.99844
-6.556e-04,4.80281,4.99281
-6.554e-04,4.79969,4.99969
-6.552e-04,4.80281,4.99437
-6.550e-04,4.80156,4.99563
-6.548e-04,4.80219,4.99625
-6.546e-04,4.805,4.99844
-6.544e-04,4.80531,4.98188
-6.542e-04,4.80031,4.98656
-6.540e-04,4.80719,4.99219
-6.538e-04,4.79937,4.98656
-6.536e-04,4.79406,4.99375
-6.534e-04,4.79156,4.995
-6.532e-04,4.80906,4.99156
-6.530e-04,4.80125,4.98781
-6.528e-04,4.80563,4.99094
-6.526e-04,4.78594,4.98406
-6.524e-04,4.80031,4.99719
-6.522e-04,4.79156,5.00563
-6.520e-04,4.8075,4.99219
-6.518e-04,4.80531,4.98656
-6.516e-04,4.80625,4.98438
-6.514e-04,4.80031,4.99219
-6.512e-04,4.80656,4.99656
-6.510e-04,4.80906,4.97563
-6.508e-04,4.79156,4.93844
-6.506e-04,4.79937,5.01688
-6.504e-04,4.80312,5.07
-6.502e-04,4.80219,4.97906
-6.500e-04,4.80063,4.93
-6.498e-04,4.79438,4.86781
-6.496e-04,4.80594,5.165
-6.494e-04,4.80781,5.01469
-6.492e-04,4.80094,4.97094
-6.490e-04,4.80125,5.00219
-6.488e-04,4.80312,4.9975
-6.486e-04,4.81219,4.99156
-6.484e-04,4.80656,4.99844
-6.482e-04,4.80031,4.99844
-6.480e-04,4.81031,4.99781
-6.478e-04,4.80219,4.99812
-6.476e-04,4.79531,4.98969
-6.474e-04,4.80719,4.98938
-6.472e-04,4.795,5.11594
-6.470e-04,4.82656,4.87
-6.468e-04,4.79031,4.95906
-6.466e-04,4.80281,5.045
-6.464e-04,4.80687,4.99375
-6.462e-04,4.80156,5.00094
-6.460e-04,4.80531,4.99406
-6.458e-04,4.79969,4.98969
-6.456e-04,4.81125,4.98906
-6.454e-04,4.79906,4.99594
-6.452e-04,4.80625,4.99625
-6.450e-04,4.79438,4.99531
-6.448e-04,4.81031,4.99812
-6.446e-04,4.79844,4.99563
-6.444e-04,4.79594,4.98625
-6.442e-04,4.8025,4.99281
-6.440e-04,4.79937,4.99375
-6.438e-04,4.79188,4.995
-6.436e-04,4.79844,4.99
-6.434e-04,4.80625,4.97938
-6.432e-04,4.79375,4.99156
-6.430e-04,4.79875,4.9775
-6.428e-04,4.79312,4.99594
-6.426e-04,4.79781,4.98031
-6.424e-04,4.80406,4.99437
-6.422e-04,4.80781,4.98563
-6.420e-04,4.78313,4.99125
-6.418e-04,4.80187,4.98969
-6.416e-04,4.80938,4.97469
-6.414e-04,4.79,4.93562
-6.412e-04,4.79469,5.03938
-6.410e-04,4.80187,5.0625
-6.408e-04,4.81469,4.96156
-6.406e-04,4.8075,4.92188
-6.404e-04,4.80125,4.87688
-6.402e-04,4.7975,5.17281
-6.400e-04,4.805,4.97344
-6.398e-04,4.81188,4.96531
-6.396e-04,4.79875,4.98969
-6.394e-04,4.80656,4.99531
-6.392e-04,4.79406,4.99375
-6.390e-04,4.78906,4.97688
-6.388e-04,4.78781,4.99656
-6.386e-04,4.79688,4.98906
-6.384e-04,4.80094,4.98219
-6.382e-04,4.80875,4.98406
-6.380e-04,4.80813,4.99625
-6.378e-04,4.80406,5.23094
-6.376e-04,4.80969,4.745
-6.374e-04,4.79688,4.97813
-6.372e-04,4.80375,5.01969
-6.370e-04,4.79844,4.97938
-6.368e-04,4.80156,4.98563
-6.366e-04,4.78469,4.98719
-6.364e-04,4.80063,4.98563
-6.362e-04,4.79562,4.99719
-6.360e-04,4.80187,4.99281
-6.358e-04,4.80219,4.98594
-6.356e-04,4.80344,4.98656
-6.354e-04,4.79937,5.00344
-6.352e-04,4.81031,4.98688
-6.350e-04,4.80531,5.00031
-6.348e-04,4.79656,4.99875
-6.346e-04,4.80687,4.99125
-6.344e-04,4.80156,4.98906
-6.342e-04,4.80094,4.98281
-6.340e-04,4.80312,4.99313
-6.338e-04,4.79688,4.98531
-6.336e-04,4.80844,4.98813
-6.334e-04,4.81156,4.99031
-6.332e-04,4.80438,4.99875
-6.330e-04,4.79656,5.00063
-6.328e-04,4.8075,4.9925
-6.326e-04,4.80156,4.995
-6.324e-04,4.79688,4.98094
-6.322e-04,4.80094,4.96844
-6.320e-04,4.79406,4.95312
-6.318e-04,4.815,5.05313
-6.316e-04,4.80969,5.04531
-6.314e-04,4.80969,4.94094
-6.312e-04,4.78969,4.94063
-6.310e-04,4.80438,4.91156
-6.308e-04,4.78937,5.14438
-6.306e-04,4.81656,4.97219
-6.304e-04,4.80094,4.99688
-6.302e-04,4.81844,4.99375
-6.300e-04,4.8025,4.99313
-6.298e-04,4.80312,4.98969
-6.296e-04,4.81062,4.99938
-6.294e-04,4.79156,4.98781
-6.292e-04,4.79281,4.97875
-6.290e-04,4.80094,4.98875
-6.288e-04,4.80344,4.98906
-6.286e-04,4.80031,4.98906
-6.284e-04,4.80469,5.24656
-6.282e-04,4.80438,4.70781
-6.280e-04,4.79875,5.00906
-6.278e-04,4.80656,5.01375
-6.276e-04,4.80156,4.98688
-6.274e-04,4.79438,4.9925
-6.272e-04,4.80531,4.98719
-6.270e-04,4.80781,4.99094
-6.268e-04,4.79688,4.97906
-6.266e-04,4.80281,4.99313
-6.264e-04,4.80094,4.99719
-6.262e-04,4.79906,4.99875
-6.260e-04,4.79875,4.99594
-6.258e-04,4.78906,4.99938
-6.256e-04,4.79562,4.98406
-6.254e-04,4.78719,5.00375
-6.252e-04,4.80656,4.995
-6.250e-04,4.79438,4.99188
-6.248e-04,4.80031,4.99688
-6.246e-04,4.80219,5.0025
-6.244e-04,4.79906,4.98594
-6.242e-04,4.79031,4.99344
-6.240e-04,4.80563,4.98813
-6.238e-04,4.80219,4.99844
-6.236e-04,4.80625,4.99844
-6.234e-04,4.80094,4.99281
-6.232e-04,4.79312,4.98719
-6.230e-04,4.80594,4.99313
-6.228e-04,4.81406,4.97469
-6.226e-04,4.79656,4.95719
-6.224e-04,4.80719,5.06219
-6.222e-04,4.80781,5.03813
-6.220e-04,4.80813,4.94094
-6.218e-04,4.8025,4.93
-6.216e-04,4.79156,4.91812
-6.214e-04,4.79219,5.13313
-6.212e-04,4.79875,4.97969
-6.210e-04,4.79438,4.99
-6.208e-04,4.7975,4.99531
-6.206e-04,4.79781,4.99938
-6.204e-04,4.79656,4.98938
-6.202e-04,4.79875,4.99563
-6.200e-04,4.80219,4.995
-6.198e-04,4.79969,4.9975
-6.196e-04,4.78594,4.99906
-6.194e-04,4.79375,4.99531
-6.192e-04,4.80094,4.99375
-6.190e-04,4.81219,5.24313
-6.188e-04,4.81312,4.72625
-6.186e-04,4.7775,5.01156
-6.184e-04,4.81031,5.01031
-6.182e-04,4.81188,4.98406
-6.180e-04,4.80813,4.98531
-6.178e-04,4.81469,4.98656
-6.176e-04,4.79438,4.99188
-6.174e-04,4.79375,4.99
-6.172e-04,4.7975,4.99188
-6.170e-04,4.79438,4.99188
-6.168e-04,4.79906,4.99094
-6.166e-04,4.79656,4.99219
-6.164e-04,4.80031,4.99188
-6.162e-04,4.80656,5.00375
-6.160e-04,4.80094,4.99437
-6.158e-04,4.78656,4.99531
-6.156e-04,4.78656,4.99437
-6.154e-04,4.79219,5
-6.152e-04,4.80344,4.99406
-6.150e-04,4.8,4.98656
-6.148e-04,4.79562,4.98375
-6.146e-04,4.78719,4.99281
-6.144e-04,4.8,4.99281
-6.142e-04,4.80625,5.00094
-6.140e-04,4.79375,4.99594
-6.138e-04,4.79312,4.99563
-6.136e-04,4.79469,4.99688
-6.134e-04,4.79594,4.95844
-6.132e-04,4.78844,4.96094
-6.130e-04,4.79219,5.06469
-6.128e-04,4.80906,5.04281
-6.126e-04,4.79719,4.93531
-6.124e-04,4.78937,4.94094
-6.122e-04,4.79406,4.95344
-6.120e-04,4.80312,5.11188
-6.118e-04,4.80187,4.96063
-6.116e-04,4.79125,4.99812
-6.114e-04,4.81656,4.98938
-6.112e-04,4.80375,4.98469
-6.110e-04,4.80125,4.98781
-6.108e-04,4.79625,4.99156
-6.106e-04,4.81125,4.98813
-6.104e-04,4.80063,4.99625
-6.102e-04,4.80844,4.99531
-6.100e-04,4.79688,4.98281
-6.098e-04,4.78906,4.99313
-6.096e-04,4.825,5.19688
-6.094e-04,4.79937,4.74188
-6.092e-04,4.78562,5.02562
-6.090e-04,4.7975,4.98406
-6.088e-04,4.795,4.97469
-6.086e-04,4.80125,4.98
-6.084e-04,4.7975,4.99188
-6.082e-04,4.80594,4.99469
-6.080e-04,4.81406,4.99344
-6.078e-04,4.81,4.98281
-6.076e-04,4.81406,4.99531
-6.074e-04,4.79844,4.99437
-6.072e-04,4.80063,4.98781
-6.070e-04,4.80125,4.99812
-6.068e-04,4.80844,5.00156
-6.066e-04,4.79781,5.00875
-6.064e-04,4.80375,4.99906
-6.062e-04,4.80125,4.99688
-6.060e-04,4.80063,4.99281
-6.058e-04,4.80594,4.99688
-6.056e-04,4.80312,4.98781
-6.054e-04,4.79688,4.9975
-6.052e-04,4.7975,4.98188
-6.050e-04,4.78594,4.98563
-6.048e-04,4.80094,4.99781
-6.046e-04,4.79,4.98531
-6.044e-04,4.80187,4.98375
-6.042e-04,4.80281,5
-6.040e-04,4.80625,4.96906
-6.038e-04,4.78656,4.97375
-6.036e-04,4.79219,5.07531
-6.034e-04,4.81656,5.02875
-6.032e-04,4.79906,4.94344
-6.030e-04,4.79781,4.94531
-6.028e-04,4.78812,4.98094
-6.026e-04,4.80031,5.07313
-6.024e-04,4.80375,4.94906
-6.022e-04,4.805,5.00219
-6.020e-04,4.8025,4.995
-6.018e-04,4.80125,4.98219
-6.016e-04,4.80125,4.995
-6.014e-04,4.80125,5.00063
-6.012e-04,4.81844,5.00313
-6.010e-04,4.8025,4.99781
-6.008e-04,4.80281,4.99719
-6.006e-04,4.79875,5.00125
-6.004e-04,4.79312,5.00031
-6.002e-04,4.81781,5.15969
-6.000e-04,4.79719,4.79188
-5.998e-04,4.80594,5.04156
-5.996e-04,4.79688,4.98688
-5.994e-04,4.80156,4.99031
-5.992e-04,4.80781,4.99281
-5.990e-04,4.80563,4.98875
-5.988e-04,4.81281,4.98906
-5.986e-04,4.81094,4.9925
-5.984e-04,4.79,4.99
-5.982e-04,4.79781,4.98875
-5.980e-04,4.78719,4.98656
-5.978e-04,4.80813,4.985
-5.976e-04,4.80156,4.99156
-5.974e-04,4.7925,4.98875
-5.972e-04,4.80875,4.99094
-5.970e-04,4.80844,4.99531
-5.968e-04,4.79875,4.98844
-5.966e-04,4.79875,4.98281
-5.964e-04,4.80187,4.98062
-5.962e-04,4.80406,4.98438
-5.960e-04,4.80375,4.98375
-5.958e-04,4.80312,4.98531
-5.956e-04,4.79312,4.98031
-5.954e-04,4.81406,4.98688
-5.952e-04,4.79937,4.99281
-5.950e-04,4.80281,4.99656
-5.948e-04,4.79781,5.00063
-5.946e-04,4.80781,4.95281
-5.944e-04,4.79719,4.96906
-5.942e-04,4.80281,5.07313
-5.940e-04,4.80187,5.00938
-5.938e-04,4.80687,4.92656
-5.936e-04,4.80563,4.92844
-5.934e-04,4.78562,4.99406
-5.932e-04,4.81719,5.05844
-5.930e-04,4.79813,4.96063
-5.928e-04,4.80406,4.98656
-5.926e-04,4.78719,4.99531
-5.924e-04,4.79781,4.98188
-5.922e-04,4.79156,5.00844
-5.920e-04,4.79937,5.00219
-5.918e-04,4.78562,4.99437
-5.916e-04,4.79781,5.00844
-5.914e-04,4.79969,4.9925
-5.912e-04,4.80156,4.99406
-5.910e-04,4.80406,5.00063
-5.908e-04,4.81562,5.18094
-5.906e-04,4.81,4.75594
-5.904e-04,4.79844,5.05344
-5.902e-04,4.79406,4.98688
-5.900e-04,4.79781,4.99469
-5.898e-04,4.79813,4.99125
-5.896e-04,4.79719,4.99344
-5.894e-04,4.81,4.995
-5.892e-04,4.79656,4.99375
-5.890e-04,4.79781,4.99437
-5.888e-04,4.80438,4.985
-5.886e-04,4.79719,4.99844
-5.884e-04,4.79875,4.98719
-5.882e-04,4.79906,4.99563
-5.880e-04,4.80219,5.00188
-5.878e-04,4.80312,4.99875
-5.876e-04,4.7975,4.99188
-5.874e-04,4.80469,4.98875
-5.872e-04,4.80219,5.00188
-5.870e-04,4.80187,4.99469
-5.868e-04,4.80031,4.99812
-5.866e-04,4.80031,4.99594
-5.864e-04,4.80156,4.99375
-5.862e-04,4.7925,4.99281
-5.860e-04,4.80031,4.99094
-5.858e-04,4.79375,4.99281
-5.856e-04,4.8,4.99938
-5.854e-04,4.80625,5.00438
-5.852e-04,4.81,4.97719
-5.850e-04,4.79656,4.95063
-5.848e-04,4.80281,5.05063
-5.846e-04,4.81406,5.04438
-5.844e-04,4.81469,4.945
-5.842e-04,4.805,4.9275
-5.840e-04,4.79875,4.98719
-5.838e-04,4.80406,4.97375
-5.836e-04,4.81656,5.06625
-5.834e-04,4.8175,4.97594
-5.832e-04,4.795,4.97656
-5.830e-04,4.80406,4.99625
-5.828e-04,4.81344,4.98938
-5.826e-04,4.80312,4.98938
-5.824e-04,4.80656,4.99375
-5.822e-04,4.81094,4.99844
-5.820e-04,4.80469,4.98406
-5.818e-04,4.79875,4.97938
-5.816e-04,4.80094,4.98219
-5.814e-04,4.80563,4.995
-5.812e-04,4.82094,5.21719
-5.810e-04,4.79813,4.74812
-5.808e-04,4.78781,5.02281
-5.806e-04,4.79156,4.99688
-5.804e-04,4.80813,4.9825
-5.802e-04,4.80844,4.99188
-5.800e-04,4.79937,4.985
-5.798e-04,4.80031,4.98688
-5.796e-04,4.80563,4.97781
-5.794e-04,4.80281,4.98219
-5.792e-04,4.81,4.98344
-5.790e-04,4.81031,5.00063
-5.788e-04,4.81125,4.97719
-5.786e-04,4.81062,4.98188
-5.784e-04,4.80531,4.98594
-5.782e-04,4.80312,4.98875
-5.780e-04,4.80656,4.99313
-5.778e-04,4.80563,4.995
-5.776e-04,4.80344,5.00375
-5.774e-04,4.80906,4.99188
-5.772e-04,4.80375,4.98969
-5.770e-04,4.79469,4.98875
-5.768e-04,4.80625,4.99
-5.766e-04,4.81344,4.98844
-5.764e-04,4.79969,4.98813
-5.762e-04,4.80219,4.99156
-5.760e-04,4.81312,4.99688
-5.758e-04,4.79719,4.98813
-5.756e-04,4.7975,4.99344
-5.754e-04,4.79813,4.945
-5.752e-04,4.80125,5.00313
-5.750e-04,4.81156,5.07625
-5.748e-04,4.81,4.97969
-5.746e-04,4.80563,4.92125
-5.744e-04,4.80312,4.95813
-5.742e-04,4.79219,4.96031
-5.740e-04,4.80469,5.08406
-5.738e-04,4.80687,4.97063
-5.736e-04,4.78812,4.99156
-5.734e-04,4.80531,4.99375
-5.732e-04,4.80187,4.99281
-5.730e-04,4.80375,4.99281
-5.728e-04,4.79281,4.98813
-5.726e-04,4.79469,4.99531
-5.724e-04,4.8025,4.99469
-5.722e-04,4.80375,5.00531
-5.720e-04,4.805,4.99313
-5.718e-04,4.79531,4.99125
-5.716e-04,4.80438,5.24156
-5.714e-04,4.81312,4.74063
-5.712e-04,4.78625,4.98781
-5.710e-04,4.79188,5.01875
-5.708e-04,4.78719,4.99531
-5.706e-04,4.78781,4.98219
-5.704e-04,4.80813,4.99563
-5.702e-04,4.81,4.99906
-5.700e-04,4.80125,4.99344
-5.698e-04,4.79875,4.9875
-5.696e-04,4.79719,4.99469
-5.694e-04,4.8075,4.98219
-5.692e-04,4.80187,4.99375
-5.690e-04,4.79438,4.99313
-5.688e-04,4.81125,5.00063
-5.686e-04,4.80969,4.99188
-5.684e-04,4.79375,4.99844
-5.682e-04,4.805,4.98625
-5.680e-04,4.80875,4.99656
-5.678e-04,4.80375,4.98062
-5.676e-04,4.80156,4.98656
-5.674e-04,4.805,4.98719
-5.672e-04,4.81219,4.98531
-5.670e-04,4.80094,5.0025
-5.668e-04,4.80344,4.99563
-5.666e-04,4.80031,4.99219
-5.664e-04,4.80125,4.98469
-5.662e-04,4.80063,4.98719
-5.660e-04,4.80469,5
-5.658e-04,4.8,4.95094
-5.656e-04,4.81156,4.96844
-5.654e-04,4.79562,5.06938
-5.652e-04,4.80125,5.00688
-5.650e-04,4.805,4.92938
-5.648e-04,4.78281,4.94906
-5.646e-04,4.78063,4.92531
-5.644e-04,4.79813,5.11563
-5.642e-04,4.79688,4.9925
-5.640e-04,4.79719,4.98781
-5.638e-04,4.80281,4.99
-5.636e-04,4.80875,4.99469
-5.634e-04,4.79219,4.99125
-5.632e-04,4.80844,4.97781
-5.630e-04,4.80406,4.995
-5.628e-04,4.80469,4.98313
-5.626e-04,4.80094,4.99656
-5.624e-04,4.80687,4.98438
-5.622e-04,4.79625,4.99406
-5.620e-04,4.81781,4.99125
-5.618e-04,4.81875,5.04406
-5.616e-04,4.78437,4.88625
-5.614e-04,4.80219,5.035
-5.612e-04,4.79906,4.98688
-5.610e-04,4.8,4.99437
-5.608e-04,4.805,4.99719
-5.606e-04,4.80375,4.98688
-5.604e-04,4.80875,4.99844
-5.602e-04,4.80063,4.99875
-5.600e-04,4.79031,5.00156
-5.598e-04,4.80719,4.98406
-5.596e-04,4.80187,4.99844
-5.594e-04,4.80781,5.00094
-5.592e-04,4.80031,5.0025
-5.590e-04,4.79656,4.98125
-5.588e-04,4.79562,4.97781
-5.586e-04,4.8,4.98906
-5.584e-04,4.80063,4.98906
-5.582e-04,4.81594,4.99656
-5.580e-04,4.79156,4.98813
-5.578e-04,4.80187,4.99
-5.576e-04,4.79719,4.99125
-5.574e-04,4.805,4.99906
-5.572e-04,4.8,4.99938
-5.570e-04,4.80656,4.99906
-5.568e-04,4.80906,4.99375
-5.566e-04,4.79937,4.98938
-5.564e-04,4.80094,4.99781
-5.562e-04,4.78219,4.97594
-5.560e-04,4.79656,4.93781
-5.558e-04,4.79969,5.04719
-5.556e-04,4.815,5.06719
-5.554e-04,4.80094,4.96469
-5.552e-04,4.80156,4.93656
-5.550e-04,4.80406,4.93562
-5.548e-04,4.79656,5.07688
-5.546e-04,4.80875,5.015
-5.544e-04,4.79875,4.97625
-5.542e-04,4.80438,4.99563
-5.540e-04,4.80156,4.99375
-5.538e-04,4.79031,4.99437
-5.536e-04,4.79375,4.995
-5.534e-04,4.80375,4.99219
-5.532e-04,4.80531,4.98188
-5.530e-04,4.79813,4.995
-5.528e-04,4.8025,4.98344
-5.526e-04,4.79656,4.99469
-5.524e-04,4.80156,4.98813
-5.522e-04,4.82062,5.13875
-5.520e-04,4.80156,4.79563
-5.518e-04,4.80719,5.03688
-5.516e-04,4.79719,4.9875
-5.514e-04,4.80438,4.98594
-5.512e-04,4.80187,4.99625
-5.510e-04,4.81,4.99625
-5.508e-04,4.79688,5.00313
-5.506e-04,4.80031,4.995
-5.504e-04,4.80094,4.98938
-5.502e-04,4.80844,4.99625
-5.500e-04,4.7925,4.99938
-5.498e-04,4.78937,4.99594
-5.496e-04,4.805,4.99719
-5.494e-04,4.8,4.99219
-5.492e-04,4.80063,4.98906
-5.490e-04,4.79688,5
-5.488e-04,4.79219,4.99719
-5.486e-04,4.80656,4.99688
-5.484e-04,4.8,5.00281
-5.482e-04,4.7975,4.99938
-5.480e-04,4.805,4.99313
-5.478e-04,4.795,4.9975
-5.476e-04,4.79813,4.98469
-5.474e-04,4.8125,4.98031
-5.472e-04,4.80281,4.98938
-5.470e-04,4.79969,4.97656
-5.468e-04,4.79,4.98781
-5.466e-04,4.79906,4.99188
-5.464e-04,4.80281,4.94469
-5.462e-04,4.79875,5.00188
-5.460e-04,4.80406,5.07063
-5.458e-04,4.80531,5.00188
-5.456e-04,4.79219,4.92844
-5.454e-04,4.80656,4.96781
-5.452e-04,4.78562,5.00125
-5.450e-04,4.80938,5.04656
-5.448e-04,4.80156,4.95844
-5.446e-04,4.81156,4.99969
-5.444e-04,4.79188,4.98281
-5.442e-04,4.79156,4.99531
-5.440e-04,4.79719,4.98375
-5.438e-04,4.80531,4.99875
-5.436e-04,4.80625,4.98531
-5.434e-04,4.79875,4.9875
-5.432e-04,4.80563,4.98719
-5.430e-04,4.80438,4.9775
-5.428e-04,4.79781,4.98469
-5.426e-04,4.80531,5.24437
-5.424e-04,4.81156,4.695
-5.422e-04,4.79156,5.01406
-5.420e-04,4.79906,5.00344
-5.418e-04,4.79937,4.97844
-5.416e-04,4.79719,4.985
-5.414e-04,4.80844,4.98094
-5.412e-04,4.80938,4.98656
-5.410e-04,4.80531,4.98375
-5.408e-04,4.80625,5.00313
-5.406e-04,4.80281,4.97781
-5.404e-04,4.81562,5
-5.402e-04,4.81937,4.97719
-5.400e-04,4.80375,4.99
-5.398e-04,4.79813,4.98594
-5.396e-04,4.79781,4.98938
-5.394e-04,4.81344,4.98969
-5.392e-04,4.80625,4.99031
-5.390e-04,4.80344,4.99375
-5.388e-04,4.80312,4.99
-5.386e-04,4.80563,4.99969
-5.384e-04,4.79844,4.99625
-5.382e-04,4.80312,4.99625
-5.380e-04,4.80281,4.97688
-5.378e-04,4.79625,5.00281
-5.376e-04,4.79094,4.99188
-5.374e-04,4.78844,4.99406
-5.372e-04,4.7875,4.99375
-5.370e-04,4.7975,4.99125
-5.368e-04,4.805,4.96719
-5.366e-04,4.80219,4.94313
-5.364e-04,4.79406,5.05406
-5.362e-04,4.8025,5.04438
-5.360e-04,4.79937,4.95063
-5.358e-04,4.80063,4.93562
-5.356e-04,4.78875,4.94937
-5.354e-04,4.81031,5.12375
-5.352e-04,4.80094,4.95469
-5.350e-04,4.79531,4.97844
-5.348e-04,4.79719,4.98844
-5.346e-04,4.79312,4.97594
-5.344e-04,4.79188,4.98875
-5.342e-04,4.79844,4.9925
-5.340e-04,4.79188,4.9925
-5.338e-04,4.80563,4.99563
-5.336e-04,4.80156,4.99688
-5.334e-04,4.79719,4.99906
-5.332e-04,4.79906,4.98
-5.330e-04,4.7875,5.0175
-5.328e-04,4.83625,4.98313
-5.326e-04,4.78625,4.93562
-5.324e-04,4.79063,5.01719
-5.322e-04,4.8,4.99188
-5.320e-04,4.795,4.985
-5.318e-04,4.80125,5.00875
-5.316e-04,4.80687,4.98906
-5.314e-04,4.8125,4.99
-5.312e-04,4.80719,4.99563
-5.310e-04,4.80594,5.00031
-5.308e-04,4.80687,4.99688
-5.306e-04,4.79063,4.98875
-5.304e-04,4.80094,4.98469
-5.302e-04,4.79031,4.99844
-5.300e-04,4.81219,4.98438
-5.298e-04,4.79438,5
-5.296e-04,4.80312,4.97875
-5.294e-04,4.79438,4.99437
-5.292e-04,4.80125,4.98938
-5.290e-04,4.79813,4.99375
-5.288e-04,4.79813,4.98906
-5.286e-04,4.80406,4.98813
-5.284e-04,4.79969,4.99844
-5.282e-04,4.80469,4.98125
-5.280e-04,4.79531,4.9925
-5.278e-04,4.7975,4.98531
-5.276e-04,4.80094,4.99875
-5.274e-04,4.79438,4.9975
-5.272e-04,4.80125,4.98844
-5.270e-04,4.79937,4.92688
-5.268e-04,4.79156,5.0075
-5.266e-04,4.80813,5.07563
-5.264e-04,4.80719,4.99219
-5.262e-04,4.80625,4.92688
-5.260e-04,4.79625,4.86375
-5.258e-04,4.80094,5.17719
-5.256e-04,4.805,4.96938
-5.254e-04,4.80063,4.97656
-5.252e-04,4.79969,4.99688
-5.250e-04,4.80281,4.99125
-5.248e-04,4.79844,4.98656
-5.246e-04,4.80312,4.99844
-5.244e-04,4.80531,4.99625
-5.242e-04,4.80594,4.99969
-5.240e-04,4.80375,4.99219
-5.238e-04,4.79469,5.00125
-5.236e-04,4.79562,4.99719
-5.234e-04,4.79813,4.99875
-5.232e-04,4.82969,5.06688
-5.230e-04,4.79594,4.88188
-5.228e-04,4.79281,5.01625
-5.226e-04,4.79937,4.98656
-5.224e-04,4.8025,4.98031
-5.222e-04,4.78688,4.98844
-5.220e-04,4.79594,4.97406
-5.218e-04,4.80125,4.98313
-5.216e-04,4.78625,4.97906
-5.214e-04,4.80875,4.98906
-5.212e-04,4.79937,4.99156
-5.210e-04,4.79656,4.9975
-5.208e-04,4.80781,4.9875
-5.206e-04,4.79719,4.99781
-5.204e-04,4.80375,4.98938
-5.202e-04,4.79562,4.98313
-5.200e-04,4.79188,4.99219
-5.198e-04,4.79813,4.98375
-5.196e-04,4.80781,4.99
-5.194e-04,4.79875,4.98625
-5.192e-04,4.8,4.99281
-5.190e-04,4.79594,4.98813
-5.188e-04,4.80438,4.99531
-5.186e-04,4.80219,4.98406
-5.184e-04,4.79375,4.98813
-5.182e-04,4.79375,4.99125
-5.180e-04,4.79188,4.99688
-5.178e-04,4.80625,4.98813
-5.176e-04,4.80344,4.97875
-5.174e-04,4.81531,4.965
-5.172e-04,4.795,4.94937
-5.170e-04,4.80312,5.07156
-5.168e-04,4.80125,5.04156
-5.166e-04,4.79656,4.93094
-5.164e-04,4.78625,4.77406
-5.162e-04,4.79156,5.21375
-5.160e-04,4.80344,4.97844
-5.158e-04,4.80375,4.97906
-5.156e-04,4.80906,4.98844
-5.154e-04,4.795,5
-5.152e-04,4.79688,4.99938
-5.150e-04,4.795,4.99531
-5.148e-04,4.79844,4.99094
-5.146e-04,4.7975,4.98875
-5.144e-04,4.79063,4.98969
-5.142e-04,4.79,4.98813
-5.140e-04,4.80031,5.00156
-5.138e-04,4.79937,4.97375
-5.136e-04,4.82563,5.14875
-5.134e-04,4.78125,4.7925
-5.132e-04,4.8,5.02937
-5.130e-04,4.79031,4.9825
-5.128e-04,4.8,4.98531
-5.126e-04,4.80531,4.99
-5.124e-04,4.79813,4.98438
-5.122e-04,4.79906,4.98594
-5.120e-04,4.79937,4.98938
-5.118e-04,4.79937,4.99625
-5.116e-04,4.80875,4.99625
-5.114e-04,4.81125,4.98719
-5.112e-04,4.79312,4.99625
-5.110e-04,4.805,4.98969
-5.108e-04,4.78719,4.97531
-5.106e-04,4.80219,4.97438
-5.104e-04,4.80094,5.00406
-5.102e-04,4.79031,4.99156
-5.100e-04,4.80281,4.98406
-5.098e-04,4.79656,4.98813
-5.096e-04,4.80156,4.98219
-5.094e-04,4.79844,4.98313
-5.092e-04,4.81344,4.98313
-5.090e-04,4.79781,4.98531
-5.088e-04,4.80813,4.98438
-5.086e-04,4.805,4.99469
-5.084e-04,4.80656,4.98531
-5.082e-04,4.815,4.98281
-5.080e-04,4.8025,4.97781
-5.078e-04,4.80906,4.97688
-5.076e-04,4.80312,4.94313
-5.074e-04,4.79937,5.04906
-5.072e-04,4.80438,5.04531
