Notes and Examples/PS2KeyboardOscope/PS2Keyboard/w.csv

Model,DPO4034
Firmware Version,2.1

Point Format,Y,
Horizontal Units,S,
Horizontal Scale,0.0002,
Sample Interval,2e-07,
Record Length,10000,
Probe Attenuation,10,10
Vertical Units,V,V
Vertical Offset,0,0
Vertical Scale,2,2
Label,,
TIME,CH1,CH2
-6.560e-04,4.80844,4.99844
-6.558e-04,4.81406,4.99875
-6.556e-04,4.80813,5.00094
-6.554e-04,4.81281,5.00063
-6.552e-04,4.80594,5.00375
-6.550e-04,4.81438,5.00469
-6.548e-04,4.82375,5.00719
-6.546e-04,4.81687,4.99969
-6.544e-04,4.81969,5
-6.542e-04,4.80719,5.00563
-6.540e-04,4.81594,4.99781
-6.538e-04,4.82094,4.9975
-6.536e-04,4.81219,5.00688
-6.534e-04,4.81531,5.00125
-6.532e-04,4.80938,5.00781
-6.530e-04,4.80563,5.01
-6.528e-04,4.81344,5.00906
-6.526e-04,4.81844,5.00625
-6.524e-04,4.80875,5.01344
-6.522e-04,4.82125,4.99906
-6.520e-04,4.81438,4.98563
-6.518e-04,4.82156,4.99375
-6.516e-04,4.80938,5.00063
-6.514e-04,4.81469,5.00656
-6.512e-04,4.80813,5.00219
-6.510e-04,4.81469,4.98844
-6.508e-04,4.8175,5.005
-6.506e-04,4.81469,5.02125
-6.504e-04,4.80906,4.98438
-6.502e-04,4.81188,5.00469
-6.500e-04,4.81281,4.99125
-6.498e-04,4.80844,5.00031
-6.496e-04,4.80938,4.98438
-6.494e-04,4.82125,4.99875
-6.492e-04,4.8175,5.01156
-6.490e-04,4.81813,5.00344
-6.488e-04,4.81031,5.01187
-6.486e-04,4.82188,4.99969
-6.484e-04,4.81594,5.00625
-6.482e-04,4.81875,4.99625
-6.480e-04,4.82031,4.99094
-6.478e-04,4.81969,5.0075
-6.476e-04,4.82062,5.00563
-6.474e-04,4.81062,5.00219
-6.472e-04,4.81031,5.005
-6.470e-04,4.81188,5.00563
-6.468e-04,4.81,4.99
-6.466e-04,4.81813,5.00063
-6.464e-04,4.82844,5.00844
-6.462e-04,4.82406,4.99188
-6.460e-04,4.81156,5
-6.458e-04,4.81344,4.98719
-6.456e-04,4.8175,5.00375
-6.454e-04,4.81094,5.00219
-6.452e-04,4.81406,4.99
-6.450e-04,4.81219,5.00344
-6.448e-04,4.8225,5.00313
-6.446e-04,4.81188,4.99656
-6.444e-04,4.80687,5.01
-6.442e-04,4.82344,4.99156
-6.440e-04,4.80813,5.00313
-6.438e-04,4.81281,4.99781
-6.436e-04,4.80656,4.99563
-6.434e-04,4.81188,5.01156
-6.432e-04,4.81687,4.9875
-6.430e-04,4.81125,5.00281
-6.428e-04,4.81062,5.00281
-6.426e-04,4.81438,5.00906
-6.424e-04,4.825,5.00469
-6.422e-04,4.81156,4.99781
-6.420e-04,4.815,5.0025
-6.418e-04,4.80469,5.00906
-6.416e-04,4.80938,4.9975
-6.414e-04,4.80938,5.01625
-6.412e-04,4.795,4.97969
-6.410e-04,4.81469,5.02344
-6.408e-04,4.815,5.00313
-6.406e-04,4.80312,4.9925
-6.404e-04,4.81219,4.99594
-6.402e-04,4.81125,4.9975
-6.400e-04,4.81125,4.9925
-6.398e-04,4.80531,4.99531
-6.396e-04,4.80813,5.00313
-6.394e-04,4.81062,4.98875
-6.392e-04,4.81125,4.99656
-6.390e-04,4.79969,5.00719
-6.388e-04,4.80875,5.00469
-6.386e-04,4.81344,5.0175
-6.384e-04,4.80875,5.015
-6.382e-04,4.81156,5.01281
-6.380e-04,4.80156,5
-6.378e-04,4.81594,4.99938
-6.376e-04,4.81844,5.00656
-6.374e-04,4.81406,5.00313
-6.372e-04,4.81594,5.0075
-6.370e-04,4.81625,5.00781
-6.368e-04,4.81312,5.00438
-6.366e-04,4.81406,5.00844
-6.364e-04,4.80875,5.00094
-6.362e-04,4.81438,5.01187
-6.360e-04,4.80781,5.00469
-6.358e-04,4.81438,5.00063
-6.356e-04,4.82125,5.00313
-6.354e-04,4.81344,5.0025
-6.352e-04,4.82031,4.9975
-6.350e-04,4.80906,4.98938
-6.348e-04,4.81594,4.99406
-6.346e-04,4.81094,4.99313
-6.344e-04,4.80219,5.01813
-6.342e-04,4.80938,4.99969
-6.340e-04,4.80938,5.00125
-6.338e-04,4.81,4.99125
-6.336e-04,4.8075,5.01531
-6.334e-04,4.81406,5.00219
-6.332e-04,4.81312,4.99781
-6.330e-04,4.80531,5.00625
-6.328e-04,4.81719,5.00281
-6.326e-04,4.825,5.00031
-6.324e-04,4.80563,4.99188
-6.322e-04,4.81625,4.99969
-6.320e-04,4.80375,5.02156
-6.318e-04,4.79813,4.99375
-6.316e-04,4.80438,4.98375
-6.314e-04,4.81281,5.01156
-6.312e-04,4.81219,4.99719
-6.310e-04,4.80719,5.00094
-6.308e-04,4.8075,5.00406
-6.306e-04,4.80594,5.00438
-6.304e-04,4.81219,5.00188
-6.302e-04,4.82563,5.00219
-6.300e-04,4.81094,5.00625
-6.298e-04,4.79594,5.01
-6.296e-04,4.81188,5.00938
-6.294e-04,4.80531,5.00563
-6.292e-04,4.81562,5.00188
-6.290e-04,4.81219,5.00781
-6.288e-04,4.81562,5.00844
-6.286e-04,4.81219,5.01
-6.284e-04,4.81062,5.00313
-6.282e-04,4.80156,5.00281
-6.280e-04,4.81344,4.99844
-6.278e-04,4.80156,4.995
-6.276e-04,4.8075,5.00688
-6.274e-04,4.80312,4.99344
-6.272e-04,4.80563,4.99531
-6.270e-04,4.81062,5.01156
-6.268e-04,4.79406,4.99625
-6.266e-04,4.81906,4.99719
-6.264e-04,4.81062,5.00813
-6.262e-04,4.80844,5.01031
-6.260e-04,4.82156,5.01156
-6.258e-04,4.81844,5.00188
-6.256e-04,4.81438,5.00688
-6.254e-04,4.8025,5.01844
-6.252e-04,4.81719,5.00219
-6.250e-04,4.81906,5.0075
-6.248e-04,4.81406,5.015
-6.246e-04,4.81062,5.00969
-6.244e-04,4.81781,4.99719
-6.242e-04,4.81062,5.01281
-6.240e-04,4.81719,5.00844
-6.238e-04,4.81094,5.00844
-6.236e-04,4.80656,5.005
-6.234e-04,4.80406,5.00688
-6.232e-04,4.81906,5.00219
-6.230e-04,4.80125,5.00219
-6.228e-04,4.81844,4.99719
-6.226e-04,4.81594,4.97438
-6.224e-04,4.81156,5.01875
-6.222e-04,4.8175,5.00469
-6.220e-04,4.80719,5.01125
-6.218e-04,4.81937,5.00094
-6.216e-04,4.82219,5.01156
-6.214e-04,4.81562,5.00313
-6.212e-04,4.82437,5.01031
-6.210e-04,4.81906,5.01969
-6.208e-04,4.81656,4.99281
-6.206e-04,4.81625,5.00406
-6.204e-04,4.80938,5.00344
-6.202e-04,4.80656,4.99906
-6.200e-04,4.81344,5.00344
-6.198e-04,4.81656,4.99812
-6.196e-04,4.82156,5.00219
-6.194e-04,4.81562,5.01781
-6.192e-04,4.82156,5.00156
-6.190e-04,4.80781,4.99906
-6.188e-04,4.81625,5.00344
-6.186e-04,4.83094,5.00688
-6.184e-04,4.80594,5.01
-6.182e-04,4.8125,4.99812
-6.180e-04,4.82094,5.00063
-6.178e-04,4.80844,4.99375
-6.176e-04,4.79969,5.00375
-6.174e-04,4.81344,5.00438
-6.172e-04,4.80906,5.00875
-6.170e-04,4.80875,5.01313
-6.168e-04,4.81531,5.00906
-6.166e-04,4.8125,5.00875
-6.164e-04,4.80844,5.005
-6.162e-04,4.80938,5.005
-6.160e-04,4.81594,4.99719
-6.158e-04,4.81219,5.00031
-6.156e-04,4.80438,5.0075
-6.154e-04,4.815,5.01219
-6.152e-04,4.81,4.99437
-6.150e-04,4.82156,5.00313
-6.148e-04,4.81,5.00125
-6.146e-04,4.81031,4.99875
-6.144e-04,4.80687,5.005
-6.142e-04,4.81781,5.01063
-6.140e-04,4.81188,4.9925
-6.138e-04,4.82094,5.00531
-6.136e-04,4.82437,5.00406
-6.134e-04,4.81687,5.02688
-6.132e-04,4.81906,5.00188
-6.130e-04,4.81312,4.98531
-6.128e-04,4.81844,5.01063
-6.126e-04,4.82344,4.98344
-6.124e-04,4.81844,5.00125
-6.122e-04,4.81062,5.00188
-6.120e-04,4.81875,5.00719
-6.118e-04,4.80969,4.99781
-6.116e-04,4.83094,4.99656
-6.114e-04,4.81531,4.99719
-6.112e-04,4.8075,5.0025
-6.110e-04,4.82062,4.99969
-6.108e-04,4.81438,5.01125
-6.106e-04,4.81875,5.01031
-6.104e-04,4.81781,5.005
-6.102e-04,4.81344,5.00156
-6.100e-04,4.81188,5.00594
-6.098e-04,4.8075,5.01063
-6.096e-04,4.80813,5.0075
-6.094e-04,4.81,5.00063
-6.092e-04,4.81562,4.99656
-6.090e-04,4.80719,4.99625
-6.088e-04,4.80781,4.99437
-6.086e-04,4.80687,4.99812
-6.084e-04,4.81594,4.995
-6.082e-04,4.81906,4.99812
-6.080e-04,4.83062,5.00313
-6.078e-04,4.82219,5.00781
-6.076e-04,4.81719,5.00656
-6.074e-04,4.81406,5.00156
-6.072e-04,4.81531,5.00438
-6.070e-04,4.81594,5.00438
-6.068e-04,4.82219,5.01781
-6.066e-04,4.82062,4.98656
-6.064e-04,4.80687,5.01063
-6.062e-04,4.82563,5.00281
-6.060e-04,4.81562,5.00375
-6.058e-04,4.81875,5.01844
-6.056e-04,4.81562,5.01656
-6.054e-04,4.82625,5.00469
-6.052e-04,4.81656,5.00031
-6.050e-04,4.81969,5.00531
-6.048e-04,4.8275,4.9975
-6.046e-04,4.80406,5.01281
-6.044e-04,4.82219,5.01313
-6.042e-04,4.81312,5.04656
-6.040e-04,4.81562,4.93281
-6.038e-04,4.81281,5.02688
-6.036e-04,4.82031,5.00469
-6.034e-04,4.81719,4.995
-6.032e-04,4.81438,5.00125
-6.030e-04,4.82031,4.9975
-6.028e-04,4.81344,5.00844
-6.026e-04,4.80031,5.01156
-6.024e-04,4.80813,5.00219
-6.022e-04,4.81594,5.01625
-6.020e-04,4.81344,5.01406
-6.018e-04,4.81281,5.00188
-6.016e-04,4.80031,5.01187
-6.014e-04,4.80219,5.00281
-6.012e-04,4.81062,5.01531
-6.010e-04,4.82188,5.00219
-6.008e-04,4.80344,5.01063
-6.006e-04,4.79719,5.00063
-6.004e-04,4.8075,4.99812
-6.002e-04,4.81312,5.00594
-6.000e-04,4.81438,5.0025
-5.998e-04,4.81094,4.99781
-5.996e-04,4.81469,5.00938
-5.994e-04,4.81156,5.00094
-5.992e-04,4.81813,5.01063
-5.990e-04,4.81937,5.00219
-5.988e-04,4.80875,5.00563
-5.986e-04,4.82375,4.99938
-5.984e-04,4.81687,5.00719
-5.982e-04,4.81281,5.00063
-5.980e-04,4.80406,4.98688
-5.978e-04,4.80594,5.005
-5.976e-04,4.80312,5.00594
-5.974e-04,4.82188,5.01562
-5.972e-04,4.82,5.00906
-5.970e-04,4.81531,5.00844
-5.968e-04,4.80687,5.00906
-5.966e-04,4.81594,5.00938
-5.964e-04,4.81312,5.01313
-5.962e-04,4.81594,5.015
-5.960e-04,4.81094,5.00656
-5.958e-04,4.80844,5.005
-5.956e-04,4.80563,5.01406
-5.954e-04,4.80906,5.00875
-5.952e-04,4.80969,5.00063
-5.950e-04,4.8075,5.00688
-5.948e-04,4.81813,5.01813
-5.946e-04,4.81469,4.98031
-5.944e-04,4.8125,5.00094
-5.942e-04,4.81312,5.00406
-5.940e-04,4.82156,4.99313
-5.938e-04,4.81406,5
-5.936e-04,4.81531,5.0025
-5.934e-04,4.805,5.00531
-5.932e-04,4.81031,4.99125
-5.930e-04,4.81125,4.99781
-5.928e-04,4.81281,5.005
-5.926e-04,4.82188,4.9975
-5.924e-04,4.82188,5.01656
-5.922e-04,4.81656,5.00313
-5.920e-04,4.80531,5.0025
-5.918e-04,4.81906,4.99906
-5.916e-04,4.80594,5.0075
-5.914e-04,4.81906,5.00156
-5.912e-04,4.80969,5.00938
-5.910e-04,4.80656,5.00219
-5.908e-04,4.81719,5.00219
-5.906e-04,4.81094,5.00781
-5.904e-04,4.81906,5.01313
-5.902e-04,4.82094,4.99844
-5.900e-04,4.80938,5.00063
-5.898e-04,4.8175,5.00625
-5.896e-04,4.81031,5.01125
-5.894e-04,4.81469,4.99281
-5.892e-04,4.81219,5.00656
-5.890e-04,4.81125,5.00031
-5.888e-04,4.81594,5.00594
-5.886e-04,4.8125,5.00313
-5.884e-04,4.81344,5.00344
-5.882e-04,4.81594,5.00094
-5.880e-04,4.81531,5.00094
-5.878e-04,4.81719,5.02031
-5.876e-04,4.82031,5.00125
-5.874e-04,4.82313,5.00875
-5.872e-04,4.81656,5.00844
-5.870e-04,4.81625,5.00313
-5.868e-04,4.81594,5.00719
-5.866e-04,4.81594,5.01594
-5.864e-04,4.81406,5.01406
-5.862e-04,4.81531,5.01
-5.860e-04,4.80531,5.0025
-5.858e-04,4.80844,4.99906
-5.856e-04,4.82875,4.99812
-5.854e-04,4.82094,5.03438
-5.852e-04,4.82156,5.00313
-5.850e-04,4.81094,4.98719
-5.848e-04,4.81281,5.0275
-5.846e-04,4.82156,5.01031
-5.844e-04,4.81687,5.00594
-5.842e-04,4.82281,5.02094
-5.840e-04,4.80438,5.00656
-5.838e-04,4.81031,4.99719
-5.836e-04,4.81281,5.01688
-5.834e-04,4.80375,5.00406
-5.832e-04,4.82344,5.01281
-5.830e-04,4.81469,5.02188
-5.828e-04,4.81438,5.01031
-5.826e-04,4.81719,5.00875
-5.824e-04,4.80906,5.01656
-5.822e-04,4.815,4.99688
-5.820e-04,4.80781,5.01156
-5.818e-04,4.8225,5.015
-5.816e-04,4.79844,5.00781
-5.814e-04,4.80656,5.01562
-5.812e-04,4.81406,5.01031
-5.810e-04,4.80938,5.00375
-5.808e-04,4.81719,4.99719
-5.806e-04,4.80719,5.00375
-5.804e-04,4.8075,5.01562
-5.802e-04,4.815,5.00438
-5.800e-04,4.80969,5.00125
-5.798e-04,4.81719,5.00594
-5.796e-04,4.80594,5.01375
-5.794e-04,4.81406,4.99437
-5.792e-04,4.81312,5.00594
-5.790e-04,4.81344,5.00281
-5.788e-04,4.82125,4.9975
-5.786e-04,4.80719,5.00719
-5.784e-04,4.81094,4.99375
-5.782e-04,4.81156,5.01281
-5.780e-04,4.80406,4.99875
-5.778e-04,4.81312,5.00938
-5.776e-04,4.81813,5
-5.774e-04,4.81594,4.99594
-5.772e-04,4.81469,5.00125
-5.770e-04,4.81719,5.01125
-5.768e-04,4.80969,5.00188
-5.766e-04,4.80938,5.01125
-5.764e-04,4.80406,5.01063
-5.762e-04,4.81062,5.01313
-5.760e-04,4.81031,5.0825
-5.758e-04,4.81219,4.93281
-5.756e-04,4.80406,5.00875
-5.754e-04,4.80687,5.00719
-5.752e-04,4.81813,5.00938
-5.750e-04,4.82281,5.00594
-5.748e-04,4.81906,5.00875
-5.746e-04,4.81312,5
-5.744e-04,4.81,5.00219
-5.742e-04,4.8125,5.00313
-5.740e-04,4.82625,5.00813
-5.738e-04,4.80656,5.00344
-5.736e-04,4.805,5.00313
-5.734e-04,4.80875,5.00219
-5.732e-04,4.8075,5.00094
-5.730e-04,4.81219,5.00594
-5.728e-04,4.81438,4.99812
-5.726e-04,4.81625,5.00625
-5.724e-04,4.81719,5.00031
-5.722e-04,4.81781,5.01219
-5.720e-04,4.80687,4.99906
-5.718e-04,4.81125,4.99969
-5.716e-04,4.81562,5.00438
-5.714e-04,4.82406,5.00031
-5.712e-04,4.81156,5.01063
-5.710e-04,4.81438,5.00063
-5.708e-04,4.81687,4.99969
-5.706e-04,4.81469,5.0025
-5.704e-04,4.80969,4.98938
-5.702e-04,4.81687,5.00375
-5.700e-04,4.81687,5.00813
-5.698e-04,4.81156,4.99812
-5.696e-04,4.81344,4.9975
-5.694e-04,4.80563,5.00813
-5.692e-04,4.80906,5.00656
-5.690e-04,4.81562,4.99437
-5.688e-04,4.81281,5.00375
-5.686e-04,4.805,5.00219
-5.684e-04,4.80687,5.00125
-5.682e-04,4.80844,5.005
-5.680e-04,4.81125,5.00281
-5.678e-04,4.80969,4.99531
-5.676e-04,4.80156,4.99594
-5.674e-04,4.81937,5.00906
-5.672e-04,4.81125,5.00469
-5.670e-04,4.81844,5.01375
-5.668e-04,4.80781,4.9975
-5.666e-04,4.82375,5.01313
-5.664e-04,4.79813,4.98406
-5.662e-04,4.81094,5.03219
-5.660e-04,4.81188,5.00156
-5.658e-04,4.81312,5.00531
-5.656e-04,4.82437,5.00563
-5.654e-04,4.80219,5.00156
-5.652e-04,4.80281,5.00125
-5.650e-04,4.81844,5.0075
-5.648e-04,4.81312,5.00063
-5.646e-04,4.81188,4.99719
-5.644e-04,4.8125,5.01375
-5.642e-04,4.81438,4.99875
-5.640e-04,4.80687,4.99625
-5.638e-04,4.81031,5.00594
-5.636e-04,4.81188,4.995
-5.634e-04,4.82469,4.99719
-5.632e-04,4.8175,5.00813
-5.630e-04,4.81969,5.00469
-5.628e-04,4.80906,5.01187
-5.626e-04,4.80938,5.00281
-5.624e-04,4.82344,5.00594
-5.622e-04,4.80969,5.00031
-5.620e-04,4.79906,5.00531
-5.618e-04,4.81406,5.0075
-5.616e-04,4.82437,5.01844
-5.614e-04,4.80813,5.00938
-5.612e-04,4.81625,5.00531
-5.610e-04,4.8,5.01031
-5.608e-04,4.81844,5.01688
-5.606e-04,4.8175,4.99844
-5.604e-04,4.81156,4.99719
-5.602e-04,4.81188,4.98531
-5.600e-04,4.8275,4.99469
-5.598e-04,4.81906,4.99594
-5.596e-04,4.81531,5.0175
-5.594e-04,4.82094,4.99719
-5.592e-04,4.82406,5.00219
-5.590e-04,4.80781,5.00219
-5.588e-04,4.81687,5
-5.586e-04,4.80312,5.00469
-5.584e-04,4.81062,5.01531
-5.582e-04,4.81813,5.00938
-5.580e-04,4.81031,5.00438
-5.578e-04,4.80312,4.99719
-5.576e-04,4.82719,5.00188
-5.574e-04,4.80813,5.01438
-5.572e-04,4.80656,4.98938
-5.570e-04,4.80781,4.975
-5.568e-04,4.80875,5.03906
-5.566e-04,4.81188,5.00125
-5.564e-04,4.80938,5.00125
-5.562e-04,4.81,4.99437
-5.560e-04,4.81031,4.99531
-5.558e-04,4.81781,4.99437
-5.556e-04,4.8175,5.005
-5.554e-04,4.82656,5.00781
-5.552e-04,4.81219,5.00344
-5.550e-04,4.80969,4.99656
-5.548e-04,4.8025,5.00094
-5.546e-04,4.81344,4.99281
-5.544e-04,4.80719,5.00313
-5.542e-04,4.81312,5.00375
-5.540e-04,4.81906,5.0025
-5.538e-04,4.81625,5.00438
-5.536e-04,4.81406,5.00469
-5.534e-04,4.81594,4.99656
-5.532e-04,4.81031,5.00531
-5.530e-04,4.81625,5.01219
-5.528e-04,4.80281,4.99812
-5.526e-04,4.81062,5.00688
-5.524e-04,4.81531,5.01281
-5.522e-04,4.81219,5.00656
-5.520e-04,4.80438,5.00188
-5.518e-04,4.81937,4.99688
-5.516e-04,4.80781,5
-5.514e-04,4.81687,5.00531
-5.512e-04,4.825,5.00156
-5.510e-04,4.80563,4.99563
-5.508e-04,4.81094,4.99656
-5.506e-04,4.8225,5.00375
-5.504e-04,4.80875,5.00656
-5.502e-04,4.81156,4.99656
-5.500e-04,4.81219,4.99437
-5.498e-04,4.80406,4.995
-5.496e-04,4.80438,4.99281
-5.494e-04,4.81687,4.99313
-5.492e-04,4.81625,5.00063
-5.490e-04,4.81687,4.99344
-5.488e-04,4.81469,4.99656
-5.486e-04,4.81156,4.99281
-5.484e-04,4.81813,5.00344
-5.482e-04,4.82188,5.00656
-5.480e-04,4.81156,5.01156
-5.478e-04,4.81875,5.0075
-5.476e-04,4.82031,5.02594
-5.474e-04,4.80906,4.98844
-5.472e-04,4.81062,4.98406
-5.470e-04,4.81219,5.00313
-5.468e-04,4.81125,4.99313
-5.466e-04,4.80875,5.00719
-5.464e-04,4.81094,5.00156
-5.462e-04,4.82375,5.00594
-5.460e-04,4.81562,4.9925
-5.458e-04,4.80719,4.98969
-5.456e-04,4.81594,4.99031
-5.454e-04,4.81062,4.9975
-5.452e-04,4.82719,5.00188
-5.450e-04,4.81094,4.99844
-5.448e-04,4.80938,5.0025
-5.446e-04,4.81687,4.99625
-5.444e-04,4.81094,4.99656
-5.442e-04,4.805,5
-5.440e-04,4.80656,5.00813
-5.438e-04,4.80438,4.99406
-5.436e-04,4.80875,4.99031
-5.434e-04,4.8125,4.99812
-5.432e-04,4.80156,4.995
-5.430e-04,4.80938,5.00313
-5.428e-04,4.81219,5.01063
-5.426e-04,4.81906,5.00813
-5.424e-04,4.8175,4.99812
-5.422e-04,4.81312,4.99188
-5.420e-04,4.81406,5.00063
-5.418e-04,4.81531,5.00313
-5.416e-04,4.81531,5.00188
-5.414e-04,4.80469,4.99563
-5.412e-04,4.81687,4.98594
-5.410e-04,4.81531,4.99344
-5.408e-04,4.81781,5.00844
-5.406e-04,4.825,4.97813
-5.404e-04,4.80625,5.00969
-5.402e-04,4.81531,5.00188
-5.400e-04,4.81281,4.99406
-5.398e-04,4.81969,4.99625
-5.396e-04,4.82188,4.99156
-5.394e-04,4.80531,4.99719
-5.392e-04,4.80875,4.99437
-5.390e-04,4.80969,4.99969
-5.388e-04,4.82125,5.00313
-5.386e-04,4.81594,4.9975
-5.384e-04,4.81969,4.99875
-5.382e-04,4.82094,5.04719
-5.380e-04,4.83312,4.95312
-5.378e-04,4.82125,5.01469
-5.376e-04,4.82594,4.99531
-5.374e-04,4.82094,4.99313
-5.372e-04,4.81438,4.98688
-5.370e-04,4.82687,4.99531
-5.368e-04,4.82719,4.98844
-5.366e-04,4.81625,5.00125
-5.364e-04,4.83062,4.99969
-5.362e-04,4.82094,4.99688
-5.360e-04,4.81875,4.98844
-5.358e-04,4.82281,5.00594
-5.356e-04,4.825,4.99469
-5.354e-04,4.81594,4.98813
-5.352e-04,4.81625,5.005
-5.350e-04,4.80875,4.98719
-5.348e-04,4.80844,4.98875
-5.346e-04,4.80438,5.00031
-5.344e-04,4.81469,4.99781
-5.342e-04,4.81969,4.98969
-5.340e-04,4.81844,4.98531
-5.338e-04,4.81188,4.99875
-5.336e-04,4.81344,4.99875
-5.334e-04,4.81937,4.99375
-5.332e-04,4.81406,5.00656
-5.330e-04,4.80656,4.99531
-5.328e-04,4.825,5.00438
-5.326e-04,4.81531,5.01281
-5.324e-04,4.81406,5.00125
-5.322e-04,4.81031,5.0175
-5.320e-04,4.81188,4.99656
-5.318e-04,4.81719,4.99
-5.316e-04,4.80344,4.98938
-5.314e-04,4.81625,4.99875
-5.312e-04,4.81438,5.005
-5.310e-04,4.81625,4.99437
-5.308e-04,4.80625,4.99906
-5.306e-04,4.80156,4.99969
-5.304e-04,4.81594,5.005
-5.302e-04,4.8125,5.00438
-5.300e-04,4.81219,4.98344
-5.298e-04,4.80594,5.00969
-5.296e-04,4.81062,5.01406
-5.294e-04,4.81562,4.995
-5.292e-04,4.81031,4.99625
-5.290e-04,4.80312,5.005
-5.288e-04,4.81656,4.99344
-5.286e-04,4.80719,4.99969
-5.284e-04,4.80719,5
-5.282e-04,4.79969,5.01531
-5.280e-04,4.8125,5.00063
-5.278e-04,4.81156,5
-5.276e-04,4.80438,5.00719
-5.274e-04,4.8075,4.99844
-5.272e-04,4.79719,4.99188
-5.270e-04,4.81531,5.00031
-5.268e-04,4.79719,5.005
-5.266e-04,4.81,5.01187
-5.264e-04,4.80687,5.00469
-5.262e-04,4.80469,4.99594
-5.260e-04,4.81906,5.0075
-5.258e-04,4.81094,5.01313
-5.256e-04,4.81,5.01969
-5.254e-04,4.80438,4.99688
-5.252e-04,4.81531,5.00313
-5.250e-04,4.81188,5.00719
-5.248e-04,4.82125,5.00313
-5.246e-04,4.81312,4.99906
-5.244e-04,4.81344,5.00844
-5.242e-04,4.82313,4.99938
-5.240e-04,4.81625,5.00969
-5.238e-04,4.81281,5.0125
-5.236e-04,4.81,5.00719
-5.234e-04,4.81281,5.00156
-5.232e-04,4.8075,5.00469
-5.230e-04,4.79906,5
-5.228e-04,4.80312,4.99531
-5.226e-04,4.82062,5.0125
-5.224e-04,4.81594,4.99688
-5.222e-04,4.80063,5.00313
-5.220e-04,4.80875,5.01406
-5.218e-04,4.81469,5.01
-5.216e-04,4.82188,5.015
-5.214e-04,4.82094,5.00063
-5.212e-04,4.82313,5.00219
-5.210e-04,4.82188,5.01031
-5.208e-04,4.82188,4.99719
-5.206e-04,4.80719,4.9975
-5.204e-04,4.81062,4.99625
-5.202e-04,4.80625,4.99656
-5.200e-04,4.81,5.00469
-5.198e-04,4.82687,4.98719
-5.196e-04,4.81031,5.01219
-5.194e-04,4.81656,5.01031
-5.192e-04,4.80813,4.98188
-5.190e-04,4.81906,5.03531
-5.188e-04,4.81406,5
-5.186e-04,4.81594,5.00781
-5.184e-04,4.81937,4.9975
-5.182e-04,4.81875,5.00313
-5.180e-04,4.82687,5.0025
-5.178e-04,4.80969,5.01031
-5.176e-04,4.81156,4.99563
-5.174e-04,4.81,5.00094
-5.172e-04,4.81562,4.99906
-5.170e-04,4.82687,4.99875
-5.168e-04,4.80375,5.00781
-5.166e-04,4.8175,5.00375
-5.164e-04,4.805,5.00656
-5.162e-04,4.8175,5.00969
-5.160e-04,4.81438,5.00281
-5.158e-04,4.805,4.99469
-5.156e-04,4.81906,4.99437
-5.154e-04,4.81594,5.00094
-5.152e-04,4.81937,4.99281
-5.150e-04,4.81719,5.00406
-5.148e-04,4.81937,4.99688
-5.146e-04,4.82219,4.99563
-5.144e-04,4.81875,5
-5.142e-04,4.815,4.99938
-5.140e-04,4.82125,4.9975
-5.138e-04,4.81344,4.99719
-5.136e-04,4.80813,5.00406
-5.134e-04,4.80906,4.99719
-5.132e-04,4.80563,4.99875
-5.130e-04,4.82375,4.99094
-5.128e-04,4.81594,5.00563
-5.126e-04,4.81531,4.99281
-5.124e-04,4.81906,5.00625
-5.122e-04,4.82344,5.01375
-5.120e-04,4.82031,5.00281
-5.118e-04,4.80906,4.99156
-5.116e-04,4.81438,4.99531
-5.114e-04,4.81312,5.00844
-5.112e-04,4.80938,4.995
-5.110e-04,4.80906,4.99
-5.108e-04,4.81281,5.00156
-5.106e-04,4.83719,5.00375
-5.104e-04,4.82313,5.00094
-5.102e-04,4.81844,4.99688
-5.100e-04,4.80813,5.02281
-5.098e-04,4.81625,4.99406
-5.096e-04,4.81094,4.98594
-5.094e-04,4.80813,5.00531
-5.092e-04,4.8125,4.99875
-5.090e-04,4.8075,4.99594
-5.088e-04,4.81062,4.99938
-5.086e-04,4.80469,5.01438
-5.084e-04,4.81062,4.99281
-5.082e-04,4.81031,5.00438
-5.080e-04,4.80594,5.01063
-5.078e-04,4.81781,5.00406
-5.076e-04,4.80875,4.99188
-5.074e-04,4.7975,4.99313
